<svg xmlns="http://www.w3.org/2000/svg" xmlns:xlink="http://www.w3.org/1999/xlink" version="1.1" xml:space="preserve">

<symbol id="image" viewBox="0 0 1060 587">
	
<line fill="none" stroke="#002dab" stroke-width="2" stroke-linecap="round" stroke-linejoin="round" stroke-miterlimit="10" x1="3.8" y1="247.8" x2="7.3" y2="271.8"></line>
	
<polyline fill="none" stroke="#002dab" stroke-width="2" stroke-linecap="round" stroke-linejoin="round" stroke-miterlimit="10" points="   767.9,343.7 765.3,341.4 764.1,340.8  "></polyline>
<path fill="none" stroke="#002dab" stroke-linecap="round" stroke-linejoin="round" stroke-miterlimit="10" d="M756.5,341.2"></path>
	
<line fill="none" stroke="#002dab" stroke-width="2" stroke-linecap="round" stroke-linejoin="round" stroke-miterlimit="10" x1="756.5" y1="341.2" x2="766.3" y2="345.5"></line>
	
<line fill="none" stroke="#002dab" stroke-linecap="round" stroke-linejoin="round" stroke-miterlimit="10" x1="765.3" y1="346.4" x2="787.4" y2="368.5"></line>
<polyline fill="none" stroke="#002dab" stroke-linecap="round" stroke-linejoin="round" stroke-miterlimit="10" points="   804.8,379.9 787.4,368.5 796.2,357.9 773.9,337.4  "></polyline>
	
<line fill="none" stroke="#002dab" stroke-linecap="round" stroke-linejoin="round" stroke-miterlimit="10" x1="802.7" y1="362.3" x2="813.5" y2="369.7"></line>
	
<polyline fill="none" stroke="#002dab" stroke-width="2" stroke-linecap="round" stroke-linejoin="round" stroke-miterlimit="10" points="   813.5,369.7 804.8,379.9 787.4,368.8 765.3,346.4 773.9,337.4  "></polyline>
	
<line fill="none" stroke="#002dab" stroke-linecap="round" stroke-linejoin="round" stroke-miterlimit="10" x1="796.2" y1="357.9" x2="801.4" y2="361.4"></line>
	
<polyline fill="none" stroke="#002dab" stroke-width="2" stroke-linecap="round" stroke-linejoin="round" stroke-miterlimit="10" points="   802.9,359.7 792.1,349.7 773.9,337.4  "></polyline>
	
<line fill="none" stroke="#002dab" stroke-width="2" stroke-linecap="round" stroke-linejoin="round" stroke-miterlimit="10" x1="813.5" y1="369.7" x2="804.1" y2="360.7"></line>
	
<line fill="none" stroke="#002dab" stroke-width="2" stroke-linecap="round" stroke-linejoin="round" stroke-miterlimit="10" x1="790.3" y1="332.5" x2="781.6" y2="342.3"></line>
	
<line fill="none" stroke="#002dab" stroke-linecap="round" stroke-linejoin="round" stroke-miterlimit="10" x1="809.8" y1="367.1" x2="801.1" y2="377.5"></line>
	
<line fill="none" stroke="#002dab" stroke-linecap="round" stroke-linejoin="round" stroke-miterlimit="10" x1="785.2" y1="347.7" x2="776.5" y2="357.6"></line>
	
<polygon fill="none" stroke="#002dab" stroke-width="2" stroke-linecap="round" stroke-linejoin="round" stroke-miterlimit="10" points="   535.5,443.9 611.1,467 728.9,324 658.2,287.1  "></polygon>
	
<polygon fill="none" stroke="#002dab" stroke-width="2" stroke-linecap="round" stroke-linejoin="round" stroke-miterlimit="10" points="   177.4,334.4 13.7,284.3 152.8,23.2 315.4,108.1  "></polygon>
	
<polygon fill="none" stroke="#002dab" stroke-width="2" stroke-linecap="round" stroke-linejoin="round" stroke-miterlimit="10" points="   319.1,377.7 186.6,337.2 324.4,112.8 452.3,179.6  "></polygon>
	
<polygon fill="none" stroke="#002dab" stroke-width="2" stroke-linecap="round" stroke-linejoin="round" stroke-miterlimit="10" points="   434.6,413.1 327.1,380.2 460,183.6 562.8,237.3  "></polygon>
	
<polygon fill="none" stroke="#002dab" stroke-width="2" stroke-linecap="round" stroke-linejoin="round" stroke-miterlimit="10" points="   530.9,442.5 441.2,415.1 568.8,240.5 653.4,284.6  "></polygon>
<g>
<path fill="none" stroke="#002dab" stroke-linecap="round" stroke-linejoin="round" stroke-miterlimit="10" d="M292.8,177.6    c0.9,0,1.8-0.5,2.3-1.4c0.6-1.2,0-2.7-1.2-3.3l-16.1-7.4c-1.2-0.6-2.7,0-3.3,1.2c-0.6,1.2,0,2.7,1.2,3.3l16.1,7.4    C292.1,177.6,292.4,177.6,292.8,177.6z"></path>
	</g>
<g>
<path fill="none" stroke="#002dab" stroke-linecap="round" stroke-linejoin="round" stroke-miterlimit="10" d="M428.7,239.8    c0.9,0,1.8-0.5,2.3-1.4c0.6-1.2,0-2.7-1.2-3.3l-13.4-6.2c-1.2-0.6-2.7,0-3.3,1.2c-0.6,1.2,0,2.7,1.2,3.3l13.4,6.2    C428,239.7,428.4,239.8,428.7,239.8z"></path>
	</g>
<g>
<path fill="none" stroke="#002dab" stroke-linecap="round" stroke-linejoin="round" stroke-miterlimit="10" d="M538.7,290.1    c0.9,0,1.8-0.5,2.3-1.4c0.6-1.2,0-2.7-1.2-3.3l-11.1-5.1c-1.2-0.6-2.7,0-3.3,1.2c-0.6,1.2,0,2.7,1.2,3.3l11.1,5.1    C538,290,538.4,290.1,538.7,290.1z"></path>
	</g>
<g>
<path fill="none" stroke="#002dab" stroke-linecap="round" stroke-linejoin="round" stroke-miterlimit="10" d="M628.9,331.4    c0.9,0,1.8-0.5,2.3-1.4c0.6-1.2,0-2.7-1.2-3.3l-9.1-4.2c-1.2-0.6-2.7,0-3.3,1.2c-0.6,1.2,0,2.7,1.2,3.3l9.1,4.2    C628.2,331.3,628.6,331.4,628.9,331.4z"></path>
	</g>
<g>
<path fill="none" stroke="#002dab" stroke-linecap="round" stroke-linejoin="round" stroke-miterlimit="10" d="M225,288.7    c1,0,2-0.6,2.3-1.6c0.5-1.3-0.2-2.7-1.5-3.2l-16.5-5.9c-1.3-0.5-2.7,0.2-3.2,1.5c-0.5,1.3,0.2,2.7,1.5,3.2l16.5,5.9    C224.4,288.7,224.7,288.7,225,288.7z"></path>
	</g>
<g>
<path fill="none" stroke="#002dab" stroke-linecap="round" stroke-linejoin="round" stroke-miterlimit="10" d="M363.7,338.6    c1,0,2-0.6,2.3-1.6c0.5-1.3-0.2-2.7-1.5-3.2l-13.7-4.9c-1.3-0.5-2.7,0.2-3.2,1.5c-0.5,1.3,0.2,2.7,1.5,3.2l13.7,4.9    C363.2,338.5,363.4,338.6,363.7,338.6z"></path>
	</g>
<g>
<path fill="none" stroke="#002dab" stroke-linecap="round" stroke-linejoin="round" stroke-miterlimit="10" d="M475.9,378.9    c1,0,2-0.6,2.3-1.6c0.5-1.3-0.2-2.7-1.5-3.2l-11.3-4.1c-1.3-0.5-2.7,0.2-3.2,1.5c-0.5,1.3,0.2,2.7,1.5,3.2l11.3,4.1    C475.4,378.8,475.7,378.9,475.9,378.9z"></path>
	</g>
<g>
<path fill="none" stroke="#002dab" stroke-linecap="round" stroke-linejoin="round" stroke-miterlimit="10" d="M568,411.9    c1,0,2-0.6,2.3-1.6c0.5-1.3-0.2-2.7-1.5-3.2l-9.3-3.3c-1.3-0.5-2.7,0.2-3.2,1.5c-0.5,1.3,0.2,2.7,1.5,3.2l9.3,3.3    C567.4,411.9,567.7,411.9,568,411.9z"></path>
	</g>
<path fill="none" stroke="#002dab" stroke-width="2" stroke-linecap="round" stroke-linejoin="round" stroke-miterlimit="10" d="   M872.9,542.4c34.6-31.6,51.5-68.3,38-84.6c-14.5-17.5-58.4-4.9-98.2,28c-39.7,33-60.2,73.8-45.7,91.3c13.6,16.4,53,6.4,90.6-22.1"></path>
<path fill="none" stroke="#002dab" stroke-linecap="round" stroke-linejoin="round" stroke-miterlimit="10" d="M874.3,538.6   c31.9-30.1,47.7-63.7,35.5-78.4c-13.4-16.2-55.7-3.3-94.5,28.8s-59.2,71.3-45.8,87.5c12.2,14.8,48.4,5.4,84-20.7"></path>
<path fill="none" stroke="#002dab" stroke-width="2" stroke-linecap="round" stroke-linejoin="round" stroke-miterlimit="10" d="   M856.7,458.2c-11.9-8.5-36-2.6-56.9,14.7c-21.4,17.7-31.7,41.1-24.5,54.1"></path>
<path fill="none" stroke="#002dab" stroke-width="2" stroke-linecap="round" stroke-linejoin="round" stroke-miterlimit="10" d="   M868.4,547.6c5.1-5.1,7.5-10.7,5.3-13.3c-2.5-3-9.9-0.9-16.6,4.7c-6.7,5.6-10.2,12.5-7.7,15.5c2.3,2.8,8.9,1.1,15.2-3.6"></path>
<polyline fill="none" stroke="#002dab" stroke-linecap="round" stroke-linejoin="round" stroke-miterlimit="10" points="870.9,533    858.5,469.2 860.1,536.8 792.6,528 848.6,552.2 808.9,496 860.1,536.8  "></polyline>
<polygon fill="none" stroke="#002dab" stroke-linecap="round" stroke-linejoin="round" stroke-miterlimit="10" points="   816.5,497.2 823.1,505.3 825,503.4 818.4,495.3  "></polygon>
<polyline fill="none" stroke="#002dab" stroke-linecap="round" stroke-linejoin="round" stroke-miterlimit="10" points="870,538.2    874.4,560.9 853.6,551.9  "></polyline>
	
<polygon fill="none" stroke="#002dab" stroke-width="2" stroke-linecap="round" stroke-linejoin="round" stroke-miterlimit="10" points="   946.7,570 1035.1,481.9 1058.5,493.9 974.7,578.8  "></polygon>
	
<polyline fill="none" stroke="#002dab" stroke-width="2" stroke-linecap="round" stroke-linejoin="round" stroke-miterlimit="10" points="   913.8,559.7 1004.7,466.3 1031.6,480.1 943.4,569 913.8,559.7  "></polyline>
	
<polygon fill="none" stroke="#002dab" stroke-width="2" stroke-linecap="round" stroke-linejoin="round" stroke-miterlimit="10" points="   909.3,558.3 876.9,548.2 971.3,449.2 1001.9,464.9  "></polygon>
	
<polyline fill="none" stroke="#002dab" stroke-width="2" stroke-linecap="round" stroke-linejoin="round" stroke-miterlimit="10" points="   909.4,456.2 934.8,430.5 968,447.5 873,546.9 870,546  "></polyline>
	
<polyline fill="none" stroke="#002dab" stroke-width="2" stroke-linecap="round" stroke-linejoin="round" stroke-miterlimit="10" points="   905.8,453.5 930.9,428.5 889.8,407.4 865.4,434.3  "></polyline>
<path fill="none" stroke="#002dab" stroke-width="2" stroke-linecap="round" stroke-linejoin="round" stroke-miterlimit="10" d="   M861.7,549.6c1.4,1.6,3.8,1.7,5.4,0.3c1.6-1.4,1.5-4,0.1-5.6c-0.6-0.6-2.3,0-3.9,1.4c-1.6,1.4-2.4,3.1-1.8,3.7L861.7,549.6z"></path>
	
<line fill="none" stroke="#002dab" stroke-linecap="round" stroke-linejoin="round" stroke-miterlimit="10" x1="874.4" y1="560.9" x2="857.6" y2="544.4"></line>
<path fill="none" stroke="#002dab" stroke-linecap="round" stroke-linejoin="round" stroke-miterlimit="10" d="M770.6,535.2"></path>
<polyline fill="none" stroke="#002dab" stroke-linecap="round" stroke-linejoin="round" stroke-miterlimit="10" points="   866.7,435.8 837.8,421.8 787.4,444.5 746.4,489.8 744.8,528  "></polyline>
	
<line fill="none" stroke="#002dab" stroke-width="2" stroke-linecap="round" stroke-linejoin="round" stroke-miterlimit="10" x1="744.8" y1="528" x2="770.6" y2="535.2"></line>
<path fill="none" stroke="#002dab" stroke-linecap="round" stroke-linejoin="round" stroke-miterlimit="10" d="M863.1,455.6"></path>
	
<line fill="none" stroke="#002dab" stroke-width="2" stroke-linecap="round" stroke-linejoin="round" stroke-miterlimit="10" x1="863.1" y1="455.6" x2="866.7" y2="435.8"></line>
	
<line fill="none" stroke="#002dab" stroke-linecap="round" stroke-linejoin="round" stroke-miterlimit="10" x1="837.8" y1="421.8" x2="829.3" y2="413.5"></line>
	
<line fill="none" stroke="#002dab" stroke-linecap="round" stroke-linejoin="round" stroke-miterlimit="10" x1="787.4" y1="444.5" x2="778.3" y2="435.2"></line>
	
<line fill="none" stroke="#002dab" stroke-linecap="round" stroke-linejoin="round" stroke-miterlimit="10" x1="746.4" y1="489.8" x2="739.1" y2="481.9"></line>
	
<line fill="none" stroke="#002dab" stroke-linecap="round" stroke-linejoin="round" stroke-miterlimit="10" x1="745.6" y1="508.2" x2="737.8" y2="499.3"></line>
<path fill="none" stroke="#002dab" stroke-linecap="round" stroke-linejoin="round" stroke-miterlimit="10" d="M866.7,435.8"></path>
	
<polyline fill="none" stroke="#002dab" stroke-width="2" stroke-linecap="round" stroke-linejoin="round" stroke-miterlimit="10" points="   744.8,528 736.5,517.7 739.1,481.9 778.3,435.2 829.7,413.3 859.7,427.4  "></polyline>
	
<line fill="none" stroke="#002dab" stroke-width="2" stroke-linecap="round" stroke-linejoin="round" stroke-miterlimit="10" x1="859.7" y1="427.4" x2="866.7" y2="435.8"></line>
	
<polyline fill="none" stroke="#002dab" stroke-width="2" stroke-linecap="round" stroke-linejoin="round" stroke-miterlimit="10" points="   736.5,514 675.1,440.8 675.1,400.5 709,361.2 756.5,341.2  "></polyline>
	
<line fill="none" stroke="#002dab" stroke-linecap="round" stroke-linejoin="round" stroke-miterlimit="10" x1="775.3" y1="438.7" x2="706" y2="364.7"></line>
	
<line fill="none" stroke="#002dab" stroke-linecap="round" stroke-linejoin="round" stroke-miterlimit="10" x1="782.8" y1="433.3" x2="713.3" y2="359.4"></line>
<polyline fill="none" stroke="#002dab" stroke-linecap="round" stroke-linejoin="round" stroke-miterlimit="10" points="   778.3,435.2 709,361.2 703.2,355.2  "></polyline>
	
<line fill="none" stroke="#002dab" stroke-linecap="round" stroke-linejoin="round" stroke-miterlimit="10" x1="825" y1="415.3" x2="752.6" y2="342.8"></line>
<polyline fill="none" stroke="#002dab" stroke-linecap="round" stroke-linejoin="round" stroke-miterlimit="10" points="   828.5,413.3 756.8,341.5 748.8,333.7  "></polyline>
	
<line fill="none" stroke="#002dab" stroke-linecap="round" stroke-linejoin="round" stroke-miterlimit="10" x1="743.1" y1="477.1" x2="676.3" y2="399.1"></line>
	
<line fill="none" stroke="#002dab" stroke-linecap="round" stroke-linejoin="round" stroke-miterlimit="10" x1="741.2" y1="479.4" x2="675.1" y2="401.7"></line>
	
<line fill="none" stroke="#002dab" stroke-linecap="round" stroke-linejoin="round" stroke-miterlimit="10" x1="739" y1="482.6" x2="675.1" y2="406.8"></line>
	
<ellipse transform="matrix(0.39 -0.9208 0.9208 0.39 55.0346 921.1324)" fill="none" stroke="#002dab" stroke-linecap="round" stroke-linejoin="round" stroke-miterlimit="10" cx="722.8" cy="419" rx="9.4" ry="8.2"></ellipse>
	
<polyline fill="none" stroke="#002dab" stroke-width="2" stroke-linecap="round" stroke-linejoin="round" stroke-miterlimit="10" points="   699.3,359.9 713.3,367.1 716.2,411.6 709,419.6 654.4,438.7 639.4,432.7  "></polyline>
	
<line fill="none" stroke="#002dab" stroke-width="2" stroke-linecap="round" stroke-linejoin="round" stroke-miterlimit="10" x1="654.4" y1="438.7" x2="713.3" y2="367.1"></line>
	
<line fill="none" stroke="#002dab" stroke-linecap="round" stroke-linejoin="round" stroke-miterlimit="10" x1="643.6" y1="434.4" x2="702.8" y2="361.7"></line>
<path fill="none" stroke="#002dab" stroke-width="2" stroke-linecap="round" stroke-linejoin="round" stroke-miterlimit="10" d="   M716.2,411.6l8.6,5.8c0,0,1.1,1.9-0.5,3.5c-1.6,1.6-3.1,0.9-3.1,0.9l-12.2-2.2"></path>
	
<line fill="none" stroke="#002dab" stroke-linecap="round" stroke-linejoin="round" stroke-miterlimit="10" x1="830.5" y1="425.1" x2="822.7" y2="416.3"></line>
	
<line fill="none" stroke="#002dab" stroke-linecap="round" stroke-linejoin="round" stroke-miterlimit="10" x1="811.6" y1="433.6" x2="802.7" y2="424.8"></line>
	
<line fill="none" stroke="#002dab" stroke-linecap="round" stroke-linejoin="round" stroke-miterlimit="10" x1="792.6" y1="442.1" x2="783.8" y2="433.3"></line>
	
<line fill="none" stroke="#002dab" stroke-linecap="round" stroke-linejoin="round" stroke-miterlimit="10" x1="781.9" y1="450.5" x2="773.2" y2="441.2"></line>
	
<line fill="none" stroke="#002dab" stroke-linecap="round" stroke-linejoin="round" stroke-miterlimit="10" x1="767" y1="467" x2="759.2" y2="457.9"></line>
	
<line fill="none" stroke="#002dab" stroke-linecap="round" stroke-linejoin="round" stroke-miterlimit="10" x1="752.6" y1="483" x2="744.8" y2="475.1"></line>
	
<line fill="none" stroke="#002dab" stroke-width="2" stroke-linecap="round" stroke-linejoin="round" stroke-miterlimit="10" x1="856.1" y1="425.7" x2="806.9" y2="378.2"></line>
<polygon fill="none" stroke="#002dab" stroke-linecap="round" stroke-linejoin="round" stroke-miterlimit="10" points="785,313.4    776.4,322.2 779.9,325.7 788.5,316.7  "></polygon>
	
<polyline fill="none" stroke="#002dab" stroke-width="2" stroke-linecap="round" stroke-linejoin="round" stroke-miterlimit="10" points="   761.7,339.8 748.8,333.7 706,351.8  "></polyline>
	
<line fill="none" stroke="#002dab" stroke-linecap="round" stroke-linejoin="round" stroke-miterlimit="10" x1="741.7" y1="336.7" x2="748.8" y2="344.4"></line>
	
<line fill="none" stroke="#002dab" stroke-linecap="round" stroke-linejoin="round" stroke-miterlimit="10" x1="724.4" y1="344.4" x2="731.4" y2="351.8"></line>
	
<line fill="none" stroke="#002dab" stroke-linecap="round" stroke-linejoin="round" stroke-miterlimit="10" x1="707.1" y1="351.3" x2="714.1" y2="359.1"></line>
	
<polyline fill="none" stroke="#002dab" stroke-width="2" stroke-linecap="round" stroke-linejoin="round" stroke-miterlimit="10" points="   676.3,442.5 673.7,442.1 665.6,433.3 666.9,399.3  "></polyline>
	
<line fill="none" stroke="#002dab" stroke-linecap="round" stroke-linejoin="round" stroke-miterlimit="10" x1="675.1" y1="400.5" x2="670.4" y2="394.9"></line>
<path fill="none" stroke="#002dab" stroke-linecap="round" stroke-linejoin="round" stroke-miterlimit="10" d="M740.7,337.1   c-13.3-0.3-25.2,5.9-29.6,8.5"></path>
<g>
<path fill="none" stroke="#002dab" stroke-linecap="round" stroke-linejoin="round" stroke-miterlimit="10" d="M1013.2,505.2    c0.5,0,1.1-0.3,1.3-0.8c0.3-0.7,0-1.6-0.7-1.9l-3.4-1.7c-0.7-0.3-1.6,0-1.9,0.7c-0.3,0.7,0,1.6,0.7,1.9l3.4,1.7    C1012.8,505.2,1013,505.2,1013.2,505.2z"></path>
	</g>
<g>
<path fill="none" stroke="#002dab" stroke-linecap="round" stroke-linejoin="round" stroke-miterlimit="10" d="M967.4,550.6    c0.6,0,1.1-0.3,1.3-0.9c0.3-0.7,0-1.6-0.8-1.9l-3.1-1.3c-0.7-0.3-1.6,0-1.9,0.8c-0.3,0.7,0,1.6,0.8,1.9l3.1,1.3    C967,550.5,967.2,550.6,967.4,550.6z"></path>
	</g>
<g>
<path fill="none" stroke="#002dab" stroke-linecap="round" stroke-linejoin="round" stroke-miterlimit="10" d="M935.2,538.9    c0.6,0,1.2-0.4,1.4-1c0.3-0.8-0.1-1.6-0.9-1.8l-3.9-1.3c-0.8-0.3-1.6,0.1-1.8,0.9s0.1,1.6,0.9,1.8l3.9,1.3    C934.9,538.9,935.1,538.9,935.2,538.9z"></path>
	</g>
<g>
<path fill="none" stroke="#002dab" stroke-linecap="round" stroke-linejoin="round" stroke-miterlimit="10" d="M982.8,490.3    c0.5,0,1-0.3,1.3-0.8c0.4-0.7,0.1-1.6-0.7-1.9l-3.1-1.5c-0.7-0.4-1.6-0.1-1.9,0.7c-0.4,0.7-0.1,1.6,0.7,1.9l3.1,1.5    C982.4,490.2,982.6,490.3,982.8,490.3z"></path>
	</g>
<g>
<path fill="none" stroke="#002dab" stroke-linecap="round" stroke-linejoin="round" stroke-miterlimit="10" d="M949.1,473.9    c0.5,0,1-0.3,1.3-0.8c0.4-0.7,0.1-1.6-0.6-1.9l-3.6-1.8c-0.7-0.4-1.6-0.1-1.9,0.6s-0.1,1.6,0.6,1.9l3.6,1.8    C948.7,473.8,948.9,473.9,949.1,473.9z"></path>
	</g>
<g>
<path fill="none" stroke="#002dab" stroke-linecap="round" stroke-linejoin="round" stroke-miterlimit="10" d="M899.6,526.8    c0.6,0,1.1-0.3,1.3-0.9c0.3-0.7,0-1.6-0.8-1.9l-4.8-2c-0.7-0.3-1.6,0-1.9,0.8c-0.3,0.7,0,1.6,0.8,1.9l4.8,2    C899.2,526.8,899.4,526.8,899.6,526.8z"></path>
	</g>
	
<circle fill="none" stroke="#002dab" stroke-width="2" stroke-linecap="round" stroke-linejoin="round" stroke-miterlimit="10" cx="141.9" cy="23.2" r="6.2"></circle>
	
<line fill="none" stroke="#002dab" stroke-width="2" stroke-linecap="round" stroke-linejoin="round" stroke-miterlimit="10" x1="139.3" y1="17.6" x2="132.1" y2="2"></line>
	
<line fill="none" stroke="#002dab" stroke-width="2" stroke-linecap="round" stroke-linejoin="round" stroke-miterlimit="10" x1="137.8" y1="27.8" x2="146.3" y2="35.3"></line>
	
<line fill="none" stroke="#002dab" stroke-width="2" stroke-linecap="round" stroke-linejoin="round" stroke-miterlimit="10" x1="145.4" y1="18.1" x2="152.8" y2="23.2"></line>
<path fill="none" stroke="#002dab" stroke-width="2" stroke-linecap="round" stroke-linejoin="round" stroke-miterlimit="10" d="   M5.3,281.9c1.9,0.5,8.4,2.4,8.4,2.4"></path>
<path fill="none" stroke="#002dab" stroke-width="2" stroke-linecap="round" stroke-linejoin="round" stroke-miterlimit="10" d="   M23,267c0,0-13.3,3.8-17.2,5"></path>
	
<circle fill="none" stroke="#002dab" stroke-width="2" stroke-linecap="round" stroke-linejoin="round" stroke-miterlimit="10" cx="7.3" cy="277" r="5.3"></circle>
<path fill="none" stroke="#002dab" stroke-linecap="round" stroke-linejoin="round" stroke-miterlimit="10" d="M779.1,324.9   l-16.4,17l0,0c-0.2,0.2-0.7,0.1-1.2-0.3c-0.5-0.4-0.8-0.9-0.6-1.1l0.1-0.1l16.3-17.2L779.1,324.9z"></path>
<polyline fill="none" stroke="#002dab" stroke-linecap="round" stroke-linejoin="round" stroke-miterlimit="10" points="   817.4,342.8 792.4,371.8 793.8,372.7 818.1,344.4  "></polyline>
<path fill="none" stroke="#002dab" stroke-linecap="round" stroke-linejoin="round" stroke-miterlimit="10" d="M831.5,338.4   c-4.4-4.9-16.8,7-12.5,11.4C823.2,354.2,836.4,343.9,831.5,338.4z"></path>
	
<line fill="none" stroke="#002dab" stroke-width="2" stroke-linecap="round" stroke-linejoin="round" stroke-miterlimit="10" x1="824.2" y1="342.8" x2="865.8" y2="381.6"></line>
<path fill="none" stroke="#002dab" stroke-linecap="round" stroke-linejoin="round" stroke-miterlimit="10" d="M825.3,338.1   c-3.5-2.6-6.1-1.6-7.2,0s-1.8,3.9,0.6,6.8"></path>
<g>
<path fill="none" stroke="#002dab" stroke-linecap="round" stroke-linejoin="round" stroke-miterlimit="10" d="M912.9,454.1    c0.5,0,1.1-0.3,1.3-0.8c0.3-0.7,0-1.6-0.7-1.9l-4.3-2c-0.7-0.3-1.6,0-1.9,0.7c-0.3,0.7,0,1.6,0.7,1.9l4.3,2    C912.5,454.1,912.7,454.1,912.9,454.1z"></path>
	</g>

</symbol>
</svg>