<svg xmlns="http://www.w3.org/2000/svg" xmlns:xlink="http://www.w3.org/1999/xlink" version="1.1" id="Layer_1" x="0px" y="0px" viewBox="0 0 1156.1 248" enable-background="new 0 0 1156.1 248" xml:space="preserve">
<g>
<path fill="#FFFFFF" d="M393,116.9l31.4,94.8l32.3-93.1h12.9l-44.1,120.1H423l-31.2-95l-31.2,95h-2.5l-44.1-120.1H327l32.3,92.9   c6.3-16.5,13.5-37.4,31.2-94.6H393z"></path>
<path fill="#FFFFFF" d="M589.6,236.4h-13.3l-12.2-26.8h-63.3l-12,26.8h-13.7l55.9-119.9h2.7L589.6,236.4z M532.4,139.5l-27.4,60.1   h54.7L532.4,139.5z"></path>
<path fill="#FFFFFF" d="M642.7,129v107.4h-12.4V129h-34l2.7-10.5h76.8V129H642.7z"></path>
<path fill="#FFFFFF" d="M695.5,177.3c0-38.4,26-60.2,60.6-60.2c19.4,0,35,8.6,39.3,11.6l-1,11.6c-4.4-2.9-19.8-12.7-38-12.7   c-27,0-48.1,17.7-48.1,49.6c0,31.7,20.5,50.2,47.7,50.2c19,0,32.5-8.7,37.8-12.5l5.3,10.3c-13.7,9.3-27.9,13.1-43.1,13.1   C721.6,238.1,695.5,215.7,695.5,177.3z"></path>
<path fill="#FFFFFF" d="M915.4,236.4v-60.1h-71.1v60.1h-12.5V118.6h12.5v47.3h71.1v-47.3h12.7v117.8H915.4z"></path>
<path fill="#FFFFFF" d="M971.4,236.4V118.6h67.4V129h-54.8v36.9h37.2v10.5h-37.2v49.4h54.8v10.6H971.4z"></path>
<path fill="#FFFFFF" d="M340.8,11c-2.6-0.6-4.7-0.7-6.2-0.7c-5.6,0-7.7,3.5-7.7,10.3v7.2h11.6v5.6h-11.6V74h-6.6V33.4h-8.6l1.5-5.6   h7v-7.2c0-11,5.2-16,13.7-16c3,0,4.7,0.3,7.9,0.9L340.8,11z"></path>
<path fill="#FFFFFF" d="M358.6,74V6.1l6.6-1.3V74H358.6z"></path>
<path fill="#FFFFFF" d="M393.3,27.9v24.1c0,11.6,3,17.2,12.4,17.2c7.1,0,15.6-5.1,15.6-18.2V27.9h6.6V74h-6.6v-9.2   c-3.4,7.6-10.7,10-16.7,10c-13.1,0-18-8.4-18-22.9V27.9H393.3z"></path>
<path fill="#FFFFFF" d="M477.1,37c-4.1-2.9-9.2-4.2-13.2-4.2c-4.5,0-9.8,1.7-9.8,6.4c0,11.3,26.7,5.3,26.7,22.1   c0,8.8-7.5,13.6-17.6,13.6c-4.7,0-11.1-1-17.9-5.4c1.2-1.7,3.3-4.6,3.5-4.9c4.7,3.2,10.3,4.4,14.1,4.4c6.6,0,10.9-2.6,10.9-7.6   c0-12.1-26.4-5.6-26.4-22.2c0-8.4,7.8-12.3,16.3-12.3c5.5,0,11.1,1.9,14.2,4.1C477.8,33.1,477.5,35,477.1,37z"></path>
<path fill="#FFFFFF" d="M527.6,37c-4.1-2.9-9.2-4.2-13.2-4.2c-4.5,0-9.8,1.7-9.8,6.4c0,11.3,26.7,5.3,26.7,22.1   c0,8.8-7.5,13.6-17.6,13.6c-4.7,0-11.1-1-17.9-5.4c1.2-1.7,3.3-4.6,3.5-4.9c4.7,3.2,10.3,4.4,14.1,4.4c6.6,0,10.9-2.6,10.9-7.6   c0-12.1-26.4-5.6-26.4-22.2c0-8.4,7.8-12.3,16.3-12.3c5.5,0,11.1,1.9,14.2,4.1C528.3,33.1,528,35,527.6,37z"></path>
<path fill="#FFFFFF" d="M571.4,74.9c-13.1,0-23.7-8.5-23.7-23.8s10.6-24,23.7-24c13.2,0,23.7,8.6,23.7,24.1   C595.2,66.4,584.7,74.9,571.4,74.9z M571.3,33.1c-9.4,0-17,6.4-17,18c0,11.7,7.6,18,17,18c9.6,0,17.1-6.3,17.1-17.9   C588.4,39.5,580.9,33.1,571.3,33.1z"></path>
<path fill="#FFFFFF" d="M649.9,74V49.9c0-11.6-3.5-17.2-12.9-17.2c-7.1,0-15.6,5.1-15.6,18.2V74h-6.6V27.9h6.6V37   c3.4-7.6,10.7-10,16.7-10c13.1,0,18.5,8.4,18.5,22.9V74H649.9z"></path>
<path fill="#FFFFFF" d="M678.2,74V27.9h6.6V74H678.2z"></path>
<path fill="#FFFFFF" d="M704.3,50.9c0-15.2,10.3-24,24.2-24c7.5,0,13,3.2,15.3,4.7l-1.3,6c-1.9-1.1-7.1-4.7-14-4.7   c-10,0-17.7,6.3-17.7,17.9c0,11.6,7.5,18.2,17.7,18.2c6.4,0,11.4-3.1,14-4.9l3.1,5.3c-6,4-11.5,5.4-17.1,5.4   C714.6,74.9,704.3,66,704.3,50.9z"></path>
<path fill="#FFFFFF" d="M1143.1,236.4l-16.8-28.9c-9.9-16-15.4-23.4-29.1-23.4h-11v52.3h-12.5V118.6h24.7   c26.2,0,42.6,11.4,42.6,32.5c0,16.3-11.2,26.2-26.2,28.5c8.9,2.9,15.3,12.2,21.8,23.6l19.6,33.2H1143.1z M1099.5,128.6h-13.3v45.6   h12.2c19,0,30.2-7.6,30.2-22.8C1128.6,136.4,1117.8,128.6,1099.5,128.6z"></path>
</g>
<g>
<path fill="#FF0D70" d="M211.4,36.3C180.8,5.7,137.4-6.6,95.2,3.4c-7.1,1.7-12.5,7.7-13.4,14.8L79,40.5c-1,8.4,2.3,16.6,8.7,21.6   C95.4,68,99.9,77,99.9,86.7h1l0,0l-1,0.1c0,5.9,3.4,11.3,8.7,13.8l16.1,7.6c4.4,2.1,9.5,1.2,13-2.2c9.1-8.8,21.1-13.6,33.8-13.6   c22.6,0,42.2,15.4,47.4,37.4c1.8,7.5,8.2,13.1,16,13.9l3.5,0.4c0.3,0,0.6,0,0.9,0c1.7,0,3.4-0.6,4.8-1.7c1.6-1.3,2.6-3.1,2.8-5.2   C251,99.7,238,63,211.4,36.3z"></path>
<path fill="#FF0D70" d="M104,194c5.2,3,11.7,2,15.7-2.4l8.1-8.9c4.3-4.7,5-11.5,1.7-16.9c-4.4-7.5-6.7-16-6.7-24.7   c0-4.7,0.7-9.3,2-13.8c1.4-4.6-0.9-9.7-5.3-11.8l-14.8-7c-5.2-2.5-11.6-1.7-16.1,2.1c-5.5,4.6-12.6,7.1-19.8,7.1   c-10.5,0-20.2-5.2-25.9-14c-2.9-4.4-8.2-6.7-13.4-5.8L9,101.4c-4.4,0.8-7.8,4.4-8.3,8.8c-4.2,37.6,8.8,74.5,35.5,101.2   c3.7,3.7,7.6,7.1,11.6,10.3c1,0.8,2.2,1.2,3.4,1.2c0.8,0,1.5-0.2,2.2-0.5c1.9-0.8,3.3-2.7,3.5-4.8c1.2-12.8,10.1-27.8,31.5-27.8   C94,189.9,99.3,191.3,104,194z"></path>
<path fill="#FF0D70" d="M11.3,92c0.3,0,0.6,0,0.9-0.1l12.5-2.2c6.9-1.2,12.4-5.9,14.4-12.4c2.8-8.8,9.2-15.8,17.7-19.4   c7.1-3,12.2-9.7,13.2-17.6l2.5-20.5c0.2-1.9-0.6-3.7-2.2-4.8c-1.6-1.1-3.6-1.2-5.3-0.3c-10.6,5.7-20.3,13-28.9,21.5   C22.4,50.2,12.3,66.5,6.2,85c-0.6,1.8-0.2,3.7,1,5.1C8.3,91.3,9.8,92,11.3,92z"></path>
<path fill="#FF0D70" d="M237.1,152.8l-5.5-0.6c-6.6-0.7-12.9,2.8-15.6,8.9c-7.9,17.5-25.3,28.8-44.5,28.8c-7.8,0-15.3-1.8-22.2-5.4   c-4.5-2.3-10-1.3-13.3,2.4l-12.5,13.8c-3.6,4-5.2,9.4-4.3,14.5c0.4,1.9,0.5,3.8,0.5,5.7c0,6.6-2.1,12.9-5.9,18.2   c-1.2,1.6-1.4,3.7-0.5,5.6c0.9,1.9,2.7,3.1,4.8,3.2c1.9,0.1,3.9,0.1,5.8,0.1c32.5,0,64.2-13.2,87.7-36.6   c14.2-14.2,24.9-31.8,30.7-50.9c0.5-1.7,0.3-3.6-0.7-5.1C240.4,153.9,238.9,153,237.1,152.8z"></path>
<path fill="#FF0D70" d="M88.6,199c-12.1,0-21.9,9.8-21.9,21.9c0,7.5,3.8,14.4,10.2,18.4l0.2,0.1c2.7,1.1,5.5,2.1,8.3,3.1l0.2,0   c1.2,0.2,2.1,0.2,3.1,0.2c12.1,0,21.9-9.8,21.9-21.9S100.6,199,88.6,199z"></path>
<path fill="#FF0D70" d="M46.7,86.7c0,12.2,9.9,22.1,22.1,22.1c12.2,0,22.1-9.9,22.1-22.1c0-12.2-9.9-22.1-22.1-22.1   C56.6,64.6,46.7,74.5,46.7,86.7z"></path>
<path fill="#FF0D70" d="M171.5,180c21.5,0,38.9-17.5,38.9-38.9c0-21.5-17.5-38.9-38.9-38.9c-21.5,0-38.9,17.5-38.9,38.9   C132.6,162.5,150,180,171.5,180z"></path>
</g>
</svg>