﻿<svg xmlns="http://www.w3.org/2000/svg" xmlns:xlink="http://www.w3.org/1999/xlink" class="svg-camera svg-camera--anim drawsvg-initialized " viewBox="0 0 804 763.57" version="1.1" style="display: inline">
    <g id="Canvas" transform="translate(874 494)">
        <g id="Union">
            <use xlink:href="#path0_fill" transform="matrix(-1 0 0 1 -70 -494)" fill="url(#paint0_linear)"></use>
        </g>
    </g>
    <defs>
        <linearGradient id="paint0_linear" x1="0" y1="0" x2="1" y2="0" gradientUnits="userSpaceOnUse" gradientTransform="matrix(-530 680 -804.644 -627.149 1130.32 363.574)">
            <stop offset="0.0999327" stop-color="#00E581"></stop>
            <stop offset="1" stop-color="#0A5BFF"></stop>
        </linearGradient>
        <path id="path0_fill" fill-rule="evenodd" d="M 772.13 132.13C 751.77 106.51 722.72 83.44 685.79 63.58C 609.55 22.58 508.76 0 402 0C 294.84 0 194.06 21.94 118.23 61.79C 42 101.85 0 155.25 0 212.17L 0 244.9C 0 360.47 46.36 469.19 126.55 546.9C 139.684 595.214 164.649 639.495 199.19 675.74C 253.19 732.36 325.01 763.54 401.41 763.54C 477.81 763.54 549.62 732.36 603.63 675.74C 637.71 639.978 662.474 596.385 675.74 548.8C 704.105 521.67 728.438 490.618 748 456.59C 784.65 393 804 319.76 804 244.9L 804 215.73C 804 186.87 793.28 158.74 772.13 132.13ZM 4 212.17C 4 97.39 182.54 4 402 4C 508.11 4 608.22 26.41 683.9 67.1C 720.35 86.7 749 109.42 769 134.61C 789.57 160.5 800 187.8 800 215.73L 800 244.9L 800 246.11C 791 197.69 750.88 152.82 684.8 118.03C 609.32 78.3 508.89 56.42 402 56.42C 295.11 56.42 194.68 78.3 119.21 118C 53.12 152.82 13 197.69 4 246.11L 4 244.9L 4 212.17ZM 125.07 522.94C 134.47 539.19 149.49 554.47 169.77 568.24C 171.483 573.02 173.393 577.793 175.5 582.56C 159.468 571.096 144.297 558.472 130.11 544.79C 128.17 537.597 126.49 530.313 125.07 522.94ZM 119.48 464.17C 127.55 429.56 159.48 398.62 206.59 375.75L 206.3 376.24C 198.22 389.89 186.78 409.24 174.2 443.66C 162.2 466.44 157.14 491.79 159.09 519.25C 160.204 533.734 163.061 548.031 167.6 561.83C 145.27 545.83 130.12 527.83 122.72 508.83C 120.575 494.04 119.489 479.115 119.47 464.17L 119.48 464.17ZM 687.28 458.49C 689.629 465.931 690.833 473.687 690.85 481.49C 690.85 489.3 688.68 497.49 684.55 505.9C 686.405 491.977 687.337 477.946 687.34 463.9C 687.33 462.119 687.301 460.337 687.271 458.546L 687.271 458.544L 687.271 458.542L 687.271 458.539L 687.271 458.537L 687.271 458.535L 687.27 458.49L 687.28 458.49ZM 683.34 463.9C 683.348 481.14 681.933 498.352 679.11 515.36C 667.48 533.06 647.6 551.12 621.24 567.42C 628.539 548.723 632.191 528.801 632 508.73C 632 475.53 623.07 459.8 619.78 455.13C 633.88 440.34 634.89 406.46 634.78 394.89C 657.24 410.37 673.84 428.19 682.9 447.48C 683.21 452.89 683.33 458.41 683.33 463.9L 683.34 463.9ZM 630.8 392.17C 630.91 396.91 631.09 417.7 626.06 434.73C 625.78 435.14 625.48 435.53 625.18 435.9C 625.147 435.923 625.117 435.95 625.09 435.98L 624.96 436.15C 623.182 438.235 620.804 439.719 618.15 440.4C 609.49 442.63 597.15 436.68 586 424.88C 571.19 409.24 565.65 388.18 569.5 362.24C 592.71 370.63 613.38 380.73 630.8 392.17ZM 585.26 425.58C 595.07 435.94 605.82 441.87 614.36 441.86C 615.709 441.865 617.052 441.7 618.36 441.37C 619.346 441.115 620.302 440.753 621.21 440.29C 617.58 443.81 612.01 447.86 605.52 447.86C 595.19 447.86 581.73 438.95 572.8 426.2C 559.8 407.57 552.59 389.55 557.25 358.08C 561.063 359.313 564.813 360.59 568.5 361.91C 564.64 387.91 570.4 409.9 585.25 425.58L 585.26 425.58ZM 572 426.77C 581.1 439.77 594.9 448.86 605.54 448.86C 614.88 448.86 622.33 440.98 625.2 437.45C 623.2 443.35 620.52 448.64 616.9 452.45C 615.234 454.304 613.193 455.782 610.912 456.785C 608.631 457.789 606.162 458.295 603.67 458.27C 595.12 458.27 580.77 450.79 568.02 434.08C 557.39 420.15 544.14 394.87 540.62 353.08C 545.953 354.56 551.187 356.123 556.32 357.77C 551.55 389.67 558.8 407.9 572 426.77ZM 536.51 352C 542.51 428 581.21 460.66 602.14 462.19C 598.617 463.276 594.946 463.802 591.26 463.75C 575.66 463.75 534.26 443.19 528.15 349.85C 530.963 350.53 533.75 351.247 536.51 352ZM 524.08 348.88C 526.62 390.19 536.08 422 552.29 443.43C 565.84 461.36 581.29 467.75 591.29 467.75C 601.54 467.75 609.75 464.63 616.94 457.99C 618.943 461.133 620.586 464.491 621.84 468C 624.67 475.58 628.04 488.79 628.04 508.7C 628.04 570.05 596.91 607.16 557.49 654.14L 556 655.93C 592.52 577.82 554.37 474.76 462.13 412.1C 408.75 375.84 352.93 358.96 300.71 363.28C 250.83 367.41 208.71 391.18 182.24 430.22C 180.547 432.713 178.943 435.247 177.43 437.82C 185.397 416.58 195.344 396.137 207.14 376.76L 208.14 374.99C 259.44 350.48 328.38 335.45 404.09 335.45C 446.94 335.45 487.57 340.26 524.08 348.86L 524.08 348.88ZM 211.16 537.2C 228.62 514.95 254.81 502.49 284.9 502.11L 286.37 502.11C 317.72 502.11 350.37 514.73 380.87 538.67C 414.87 565.38 437.35 603.24 440.87 639.96C 443.27 664.65 436.97 686.49 422.65 703.1C 396.45 733.49 314.31 744.59 254.51 697.66C 225.96 675.26 205.75 646.55 197.6 616.83C 189.45 587.11 194.27 558.72 211.16 537.2ZM 217.1 519.06C 224.033 510.782 231.782 503.224 240.23 496.5C 258.096 483.27 279.349 475.382 301.52 473.75C 336.27 471.07 372.92 483.33 404.72 508.29C 431.21 529.08 450.33 557.4 458.56 588.04C 466.69 618.31 463.75 649.09 450.29 674.76C 447.728 674.179 445.138 673.731 442.53 673.42C 445.303 662.367 446.109 650.912 444.91 639.58C 441.24 601.79 418.22 562.9 383.35 535.53C 351.64 510.65 317.59 497.73 284.86 498.12C 253.53 498.52 226.24 511.52 208.02 534.74C 206.42 536.78 204.923 538.877 203.53 541.03C 207.081 533.148 211.639 525.76 217.09 519.05L 217.1 519.06ZM 438.2 685.9C 448.44 690.58 454.06 697.31 454.06 704.99C 454.06 718.91 441.75 720.99 434.41 720.99C 428.92 720.99 422.99 718.13 417.9 713.11C 420.744 710.907 423.366 708.432 425.73 705.72C 430.851 699.771 435.054 693.091 438.2 685.9ZM 417.1 713.71C 422.4 718.99 428.63 721.98 434.42 721.98C 447.73 721.98 455.07 715.98 455.07 704.98C 455.07 696.89 449.24 689.84 438.61 684.98C 438.96 684.15 439.3 683.31 439.61 682.47C 444.94 684.85 460.06 692.68 460.06 704.98C 460.06 713.98 453.17 723.73 438.06 723.73C 425.61 723.73 418.42 717.66 415.69 714.73C 416.163 714.403 416.633 714.063 417.1 713.71ZM 414.85 715.34C 417.64 718.34 425.1 724.73 438.04 724.73C 453.86 724.73 461.04 714.49 461.04 704.98C 461.04 691.89 445.44 683.92 439.95 681.52C 440.817 679.187 441.58 676.803 442.24 674.37C 453.84 675.78 467.66 679.84 471.97 690.89C 471.75 705.63 461.56 726.31 439.51 726.31C 426.23 726.31 419.15 723.64 413.51 716.24L 414.85 715.34ZM 495.14 623.48C 510.37 631.62 517.94 647.42 512.49 659.2C 506.24 669.31 489.31 671.02 474.08 662.89C 469.176 660.3 464.814 656.793 461.23 652.56C 464.883 641.684 467.134 630.386 467.93 618.94C 475.79 616.69 485.43 618.29 495.14 623.48ZM 473.61 663.77C 479.716 667.118 486.547 668.924 493.51 669.03C 498.858 669.186 504.125 667.688 508.59 664.74C 505.024 668.103 500.496 670.267 495.64 670.93C 487.536 672.05 479.287 670.502 472.14 666.52C 467.424 664.03 463.247 660.631 459.85 656.52C 460.197 655.587 460.53 654.647 460.85 653.7C 464.45 657.81 468.775 661.224 473.61 663.77ZM 471.67 667.4C 477.456 670.56 483.928 672.253 490.52 672.33C 492.288 672.331 494.054 672.191 495.8 671.91C 503.62 670.65 509.69 666.64 512.9 660.64C 512.941 660.563 512.981 660.486 513.02 660.409C 513.048 660.355 513.075 660.301 513.103 660.248L 513.144 660.165L 513.211 660.033L 513.212 660.031L 513.259 659.938L 513.302 659.851C 513.339 659.779 513.375 659.708 513.41 659.64C 513.493 659.479 513.576 659.347 513.657 659.22C 513.731 659.103 513.803 658.99 513.87 658.86C 519.94 647.51 511.75 631.26 495.62 622.64C 485.31 617.13 475.79 615.5 468.01 617.89C 468.11 616.25 468.18 614.61 468.22 612.97C 478.64 610.52 489.54 612.11 499.76 617.58C 519.3 628 528.84 648.38 521 663C 513.16 677.62 490.92 681 471.38 670.58C 466.48 667.979 462.032 664.602 458.21 660.58C 458.623 659.567 459.027 658.55 459.42 657.53C 462.838 661.57 466.996 664.919 471.67 667.4ZM 500.23 616.66C 489.87 611.12 478.82 609.49 468.23 611.91C 468.297 608.163 468.21 604.41 467.97 600.65C 503.23 592.9 526.54 599.06 539.19 619.49C 542.88 637.21 534.09 648.01 522.83 661.49C 529.12 646.58 519.4 626.9 500.23 616.66ZM 467 618.23L 466.94 618.31C 466.939 618.325 466.938 618.339 466.938 618.354L 466.938 618.363C 466.938 618.375 466.939 618.388 466.94 618.4C 466.938 618.417 466.937 618.433 466.937 618.45C 466.937 618.466 466.938 618.483 466.94 618.5L 466.939 618.516C 466.938 618.523 466.938 618.531 466.938 618.539C 466.938 618.556 466.939 618.573 466.94 618.59C 466.937 618.62 466.937 618.65 466.94 618.68C 466.938 618.703 466.938 618.727 466.94 618.75L 466.94 618.81C 466.152 630.125 463.931 641.294 460.33 652.05L 460.26 652.05C 460.176 652.118 460.117 652.211 460.092 652.316C 460.066 652.421 460.076 652.531 460.12 652.63C 459.88 653.33 459.63 654.03 459.38 654.72C 465.53 633.66 465.66 610.5 459.52 587.64C 451.24 556.8 432 528.29 405.33 507.37C 373.33 482.26 336.43 469.92 301.43 472.62C 285.653 473.801 270.268 478.108 256.17 485.29C 271.906 475.721 289.437 469.483 307.68 466.96C 344 462.11 380.17 472.86 412.27 498.05C 438.828 518.748 457.257 548.13 464.33 581.05C 466.911 593.264 467.809 605.773 467 618.23ZM 348.09 733.34L 350.64 733.34C 358.175 733.229 365.691 732.537 373.12 731.27C 370.048 734.559 366.332 737.181 362.203 738.972C 358.074 740.763 353.621 741.685 349.12 741.68C 337.587 741.668 326.411 737.685 317.47 730.4C 327.559 732.358 337.813 733.343 348.09 733.34ZM 412.7 716.79C 419.4 725.53 427.7 727.31 439.54 727.31L 440.25 727.31C 422.76 729.415 405.095 729.626 387.56 727.94C 396.427 725.436 404.892 721.682 412.7 716.79ZM 473 690.79C 473.012 690.727 473.012 690.663 473 690.6C 470.13 683.11 462.7 677.81 451.34 674.98C 453.762 670.642 455.939 666.172 457.86 661.59C 461.688 665.539 466.111 668.863 470.97 671.44C 478.224 675.396 486.338 677.514 494.6 677.61C 505.13 677.61 514.48 673.78 519.94 666.61C 521.04 665.277 522.13 663.963 523.21 662.67C 534.4 649.26 544.07 637.67 540.21 619.21C 540.199 619.154 540.179 619.099 540.15 619.05C 527.28 598.18 503.66 591.84 467.97 599.65C 467.504 593.38 466.612 587.149 465.3 581C 458.178 547.851 439.621 518.264 412.88 497.42C 380.56 472.06 344.14 461.23 307.55 466.12C 283.23 469.37 259.89 479.64 239.64 495.7C 230.881 502.206 223.034 509.858 216.31 518.45C 209.72 526.3 203.73 536.94 199.58 547.79C 190.88 564.42 187.88 583.73 190.88 604.09C 174.62 575.85 165 546.62 163.06 519C 160.78 486.93 168.35 457.83 185.56 432.49C 211.38 394.49 252.4 371.32 301.05 367.29C 352.34 363.05 407.27 379.69 459.89 415.43C 558.2 482.2 594.11 595.43 541.64 673.22C 522.91 700.98 489.51 719.37 448.32 726.16C 465 721.49 472.85 703.86 473 690.81L 473 690.79ZM 600.72 673C 547.47 728.82 476.72 759.56 401.4 759.56C 326.08 759.56 255.33 728.82 202.08 673C 169.564 638.887 145.629 597.528 132.25 552.34C 146.832 565.947 162.394 578.464 178.81 589.79C 182.939 598.378 187.554 606.725 192.63 614.79C 192.756 614.986 192.915 615.159 193.1 615.3C 193.32 616.17 193.55 617.05 193.79 617.93C 202.17 648.47 222.87 677.93 252.09 700.84C 270.689 715.311 292.38 725.291 315.47 730C 322.55 736.61 335.24 742.67 348.32 742.67L 349.08 742.67C 359.5 742.48 368.31 738.44 374.71 730.97L 376.47 730.64C 376.659 730.735 376.861 730.799 377.07 730.83C 388.451 732.307 399.914 733.055 411.39 733.07C 470.58 733.07 520.05 712.25 544.88 675.55C 549.681 669.715 554.41 664.074 559 658.597L 559.001 658.596L 559.007 658.588L 559.008 658.588L 559.014 658.58L 559.014 658.58L 560.54 656.76C 575.6 638.81 589.46 622.29 600.89 605.3C 625.686 590.792 648.855 573.668 670 554.22C 656.513 598.686 632.784 639.369 600.72 673ZM 672.16 546.7C 651.903 565.978 629.674 583.072 605.84 597.7C 610.656 590.01 614.923 581.99 618.61 573.7C 644.24 558.48 664.32 541.51 677.42 524.5C 675.94 531.98 674.19 539.38 672.17 546.7L 672.16 546.7ZM 677.73 541.3C 679.783 533.207 681.513 525.013 682.92 516.72C 690.69 504.66 694.84 492.72 694.84 481.5C 694.84 441.17 664.42 403.36 609.2 375.04C 554.4 346.94 481.57 331.46 404.15 331.46C 326.73 331.46 253.9 346.93 199.09 375C 143.86 403.32 113.45 441.13 113.45 481.46C 113.47 491.179 115.288 500.811 118.81 509.87C 120.263 519.823 122.187 529.643 124.58 539.33C 117.913 532.663 111.493 525.763 105.32 518.63C 96.56 504.85 96.55 495.86 96.55 489.4C 96.55 397 234.55 321.84 404.14 321.84C 491.2 321.84 566.14 336.62 620.73 364.58C 678.91 394.36 709.66 437.52 709.66 489.4C 709.66 499.33 704.52 510.07 699.24 518.3C 692.367 526.267 685.2 533.933 677.74 541.3L 677.73 541.3ZM 744.57 454.6C 732.519 475.546 718.631 495.381 703.07 513.87C 707.22 506.4 710.65 497.66 710.65 489.45C 710.65 437.17 679.71 393.7 621.17 363.74C 566.4 335.74 491.34 320.89 404.17 320.89C 321.79 320.89 244.34 338.39 186.08 370.18C 127.82 401.97 95.58 444.37 95.58 489.46C 95.58 495.25 95.58 503.04 101.66 514.37C 40.84 442.31 5.72 349.9 4.07001 252.14C 10.76 201.8 51.22 155 119.67 118.92C 195 79.26 295.27 57.42 402 57.42C 508.73 57.42 609 79.26 684.33 118.92C 752.8 154.92 793.25 201.82 799.94 252.16C 798.73 323.79 779.65 393.63 744.58 454.6L 744.57 454.6ZM 550.93 150.16C 539.62 148.83 521.59 177.65 517.51 211.97C 515.66 227.52 516.94 242.84 521.12 255.11C 524.9 266.2 530.54 273.23 536.23 273.9C 536.592 273.941 536.956 273.961 537.32 273.96C 548.96 273.96 564 252.6 567.84 220.29C 569.714 204.521 568.803 188.545 565.15 173.09C 561.69 159.38 556.37 150.81 550.93 150.16ZM 566.84 220.16C 562.75 254.59 546.3 274.08 536.34 272.9C 526.38 271.72 514.34 246.9 518.5 212.08C 522.33 179.87 539.28 151.08 550.12 151.08C 550.35 151.066 550.58 151.066 550.81 151.08C 561.24 152.39 570.89 186.09 566.84 220.18L 566.84 220.16ZM 337.26 719.88C 312.31 719.88 284.74 710.43 260.81 691.65C 238.23 673.93 222.19 650.62 215.65 626C 209 601.2 212.87 578 226.41 560.77C 255.64 523.52 312.54 524.49 361.71 563.07C 408.5 599.79 423.93 658.5 396.11 693.95C 382.52 711.27 361.08 719.88 337.26 719.88ZM 399.44 671.82C 401.834 668.206 403.864 664.364 405.5 660.35L 405.5 660.36C 405.836 657.496 406.003 654.614 406 651.73C 404.5 655.833 402.505 659.739 400.06 663.36C 387.84 681.79 366.18 691.25 341.96 691.25C 322.1 691.25 300.52 684.92 280.96 671.92C 237.55 643.11 220.3 592.39 242.55 558.86C 245.065 555.067 247.978 551.554 251.24 548.38C 245.787 552.909 241.026 558.212 237.11 564.12C 212.92 600.6 229.65 654.43 274.4 684.12C 296.09 698.52 321.09 705.16 344.69 702.82C 368.29 700.48 387.73 689.47 399.44 671.82ZM 405.92 648.36C 404.67 620.02 388.09 588.84 359.25 566.21L 359.25 566.22C 334.89 547.1 308.62 537.49 285.08 537.48C 277.584 537.45 270.123 538.508 262.93 540.62C 255.103 545.36 248.428 551.782 243.39 559.42C 221.45 592.49 238.56 642.58 281.52 671.09C 324.48 699.6 377.29 695.88 399.23 662.81C 402.224 658.385 404.483 653.506 405.92 648.36ZM 257.86 542.29C 246.692 546.545 236.904 553.781 229.56 563.21L 229.56 563.24C 216.82 579.49 213.25 601.42 219.5 625.01C 225.82 648.78 241.37 671.34 263.27 688.53C 308.32 723.91 366.5 725.24 392.96 691.53C 399.181 683.543 403.306 674.128 404.96 664.14C 403.6 667.011 402.036 669.782 400.28 672.43C 388.41 690.33 368.7 701.5 344.8 703.86C 341.66 704.167 338.503 704.32 335.33 704.32C 314.37 704.32 292.85 697.61 273.85 685C 228.63 655 211.78 600.51 236.27 563.55C 241.906 555.036 249.26 547.794 257.86 542.29ZM 290.54 659.91C 306.69 670.63 324.82 676.42 342.01 676.42L 342.011 676.42C 343.271 676.42 344.54 676.42 345.79 676.33C 364.13 675.41 378.94 667.81 387.48 654.93C 405.08 628.4 390.24 587.46 354.39 563.68C 316.72 538.68 275.95 540.79 257.45 568.68C 239.85 595.19 254.69 636.12 290.54 659.91ZM 302.23 547.25C 318.38 547.25 336.44 552.96 353.84 564.5C 389.23 587.98 403.95 628.29 386.65 654.37C 378.29 666.98 363.76 674.37 345.74 675.37C 327.72 676.37 308.26 670.51 291.09 659.12C 255.7 635.6 241 595.28 258.29 569.21C 268 554.63 283.86 547.24 302.23 547.24L 302.23 547.25ZM 291.51 658.39C 276 648.16 264.49 633.94 259 618.39C 253.45 602.64 254.75 587.4 262.65 575.47C 270.74 563.28 283.84 555.88 299.55 554.64C 315.84 553.35 333.39 558.59 350.3 569.81C 365.81 580.04 377.32 594.26 382.81 609.81C 388.37 625.56 387.07 640.8 379.16 652.73C 370.33 666.04 354.64 672.85 337 672.85C 322.25 672.85 306.14 668.09 291.51 658.39ZM 299.88 558.63C 285.43 559.77 273.39 566.54 266 577.68C 258.79 588.54 257.65 602.52 262.78 617.06C 267.98 631.76 278.97 645.27 293.73 655.06C 324.02 675.16 360.84 673.12 375.84 650.53C 383.05 639.67 384.18 625.69 379.05 611.15C 373.85 596.45 362.86 582.94 348.1 573.15C 333.53 563.45 318.54 558.45 304.44 558.45C 302.913 558.45 301.393 558.51 299.88 558.63ZM 313.57 632.39C 320.789 637.077 329.184 639.635 337.79 639.77C 338.937 639.77 340.077 639.72 341.21 639.62C 350.39 638.78 357.79 634.62 362.05 627.88C 370.8 614.03 363.31 593.52 345.33 582.16C 335.84 576.16 326.04 573.52 317.01 574.51C 308.37 575.51 301.21 579.79 296.86 586.67C 292.61 593.4 292.02 601.87 295.2 610.53C 298.38 619.19 304.89 626.9 313.57 632.39ZM 297.7 587.2C 301.89 580.57 308.78 576.42 317.12 575.5C 318.339 575.366 319.564 575.299 320.79 575.3C 328.55 575.3 336.79 577.93 344.79 583C 362.3 594.07 369.66 614 361.2 627.34C 357.12 633.8 349.98 637.81 341.12 638.62C 332.26 639.43 322.61 636.92 314.12 631.55C 305.63 626.18 299.24 618.55 296.12 610.19C 293 601.83 293.62 593.66 297.7 587.2ZM 322.45 613C 319.901 612.929 317.422 612.15 315.29 610.75C 310.43 607.68 308.11 602.61 310.11 599.45C 310.669 598.632 311.426 597.97 312.312 597.526C 313.197 597.082 314.18 596.87 315.17 596.91C 317.802 596.976 320.358 597.803 322.53 599.29C 327.39 602.36 329.72 607.42 327.72 610.58C 326.7 612.19 324.76 613 322.45 613ZM 312.802 598.413C 312.06 598.777 311.423 599.323 310.95 600C 309.25 602.68 311.53 607.14 315.87 609.91C 320.21 612.68 325.16 612.75 326.87 610.06C 328.58 607.37 326.39 602.92 322 600.15C 320.024 598.808 317.716 598.036 315.33 597.92L 315.19 597.92C 314.365 597.88 313.543 598.049 312.802 598.413Z" style="stroke-dasharray: 24186.7, 24186.7; stroke-dashoffset: 0;"></path>
    </defs>
</svg>