<svg xmlns="http://www.w3.org/2000/svg" viewBox="0 0 1115.28 687" class=" drawsvg-initialized ">
    <defs>
        <style>
            .cls-1, .cls-2 {
                fill: none;
                stroke: #0044ea;
                stroke-linecap: round;
                stroke-linejoin: round;
            }

            .cls-1 {
                stroke-width: 4px;
            }
        </style>
    </defs>
    <title>Asset 611</title>
    <g id="Layer_2" data-name="Layer 2"><g id="Layer_1-2" data-name="Layer 1"><path class="cls-1" d="M139.25,550.73V31a29,29,0,0,1,29-29H947a29,29,0,0,1,29,29V143.12" style="stroke-dasharray: 1501.72, 1501.72; stroke-dashoffset: 0;"></path><path class="cls-2" d="M934,143.41V41.85H181.31V520H794.58" style="stroke-dasharray: 1945.67, 1945.67; stroke-dashoffset: 0;"></path><path class="cls-2" d="M934,143.41" style="stroke-dasharray: 0, 0; stroke-dashoffset: 0;"></path><path class="cls-2" d="M794.58,520" style="stroke-dasharray: 0, 0; stroke-dashoffset: 0;"></path><path class="cls-2" d="M934,41.85H181.31V520" style="stroke-dasharray: 1230.84, 1230.84; stroke-dashoffset: 0;"></path><path class="cls-2" d="M794.13,551H2v22.14H794.29" style="stroke-dasharray: 1606.56, 1606.56; stroke-dashoffset: 0;"></path><path class="cls-2" d="M1063.08,573.13h50.2V551h-50.91" style="stroke-dasharray: 123.24, 123.24; stroke-dashoffset: 0;"></path><path class="cls-2" d="M794.29,573.13H2s25.84,21.74,73.09,21.74H793.57" style="stroke-dasharray: 1588.3, 1588.3; stroke-dashoffset: 0;"></path><path class="cls-2" d="M1063.54,592.72c32.32-5.49,49.74-19.58,49.74-19.58h-50.2" style="stroke-dasharray: 104.114, 104.114; stroke-dashoffset: 0;"></path><path class="cls-1" d="M794.13,551H2v22.14s25.84,21.74,73.09,21.74H793.57" style="stroke-dasharray: 1610.28, 1610.28; stroke-dashoffset: 0;"></path><path class="cls-1" d="M1063.54,592.72c32.32-5.49,49.74-19.58,49.74-19.58V551h-50.91" style="stroke-dasharray: 126.964, 126.964; stroke-dashoffset: 0;"></path><path class="cls-2" d="M637.33,568.71H477.95a6.64,6.64,0,0,1-6.64-6.64V551H644v11.07A6.64,6.64,0,0,1,637.33,568.71Z" style="stroke-dasharray: 375.102, 375.102; stroke-dashoffset: 0;"></path><path id="path4462" class="cls-2" d="M564.28,24.14a6.64,6.64,0,1,1-6.64-6.64A6.64,6.64,0,0,1,564.28,24.14Z" style="stroke-dasharray: 41.7265, 41.7265; stroke-dashoffset: 0;"></path><path id="path4464" class="cls-2" d="M557.64,17.5a6.64,6.64,0,1,0,6.64,6.64A6.65,6.65,0,0,0,557.64,17.5Z" style="stroke-dasharray: 41.7222, 41.7222; stroke-dashoffset: 0;"></path><path id="path4486" class="cls-2" d="M560.3,24.14a2.66,2.66,0,1,1-2.66-2.66A2.66,2.66,0,0,1,560.3,24.14Z" style="stroke-dasharray: 16.7159, 16.7159; stroke-dashoffset: 0;"></path><path class="cls-1" d="M1029.6,685H826.49a31.85,31.85,0,0,1-31.81-31.82v-329h-2.4V288.73h2.4v-5.9h-2.4V247.38h2.4V228.86h-2.4V206h2.4V175.39a31.85,31.85,0,0,1,31.81-31.81H1029.6a31.85,31.85,0,0,1,31.81,31.81v477.8A31.85,31.85,0,0,1,1029.6,685Z" style="stroke-dasharray: 1576.05, 1576.05; stroke-dashoffset: 0;"></path><path class="cls-2" d="M830.76,150.27a29.37,29.37,0,0,0-29.28,29.39V648.49a29.37,29.37,0,0,0,29.28,29.39h194.57a29.37,29.37,0,0,0,29.28-29.39V179.66a29.37,29.37,0,0,0-29.28-29.39Z" style="stroke-dasharray: 1511.08, 1511.08; stroke-dashoffset: 0;"></path><path class="cls-2" d="M795.22,178.74v170" style="stroke-dasharray: 170, 170; stroke-dashoffset: 0;"></path><path class="cls-2" d="M927.54,164.61a3.32,3.32,0,1,1,3.32-3.32A3.32,3.32,0,0,1,927.54,164.61Z" style="stroke-dasharray: 20.8637, 20.8637; stroke-dashoffset: 0;"></path><path class="cls-2" d="M891.8,181.24a4.57,4.57,0,1,1,4.57-4.57A4.57,4.57,0,0,1,891.8,181.24Z" style="stroke-dasharray: 28.7185, 28.7185; stroke-dashoffset: 0;"></path><path class="cls-2" d="M942.82,178.74h-31a2.38,2.38,0,1,1,0-4.77h31a2.38,2.38,0,1,1,0,4.77Z" style="stroke-dasharray: 76.9878, 76.9878; stroke-dashoffset: 0;"></path><path class="cls-2" d="M928,665.84a15.59,15.59,0,1,1,15.59-15.59A15.6,15.6,0,0,1,928,665.84Z" style="stroke-dasharray: 97.965, 97.965; stroke-dashoffset: 0;"></path><path class="cls-2" d="M811.37,621.78h233.34V206.51H811.37Z" style="stroke-dasharray: 1297.22, 1297.22; stroke-dashoffset: 0;"></path></g></g>
</svg>