<?xml version="1.0" encoding="UTF-8"?>
<svg width="332px" height="488px" viewBox="0 0 332 488" version="1.1" xmlns="http://www.w3.org/2000/svg" xmlns:xlink="http://www.w3.org/1999/xlink">
    <!-- Generator: Sketch 41.2 (35397) - http://www.bohemiancoding.com/sketch -->
    <title>users</title>
    <desc>Created with Sketch.</desc>
    <defs></defs>
    <g id="Page-1" stroke="none" stroke-width="1" fill="none" fill-rule="evenodd">
        <g id="users" transform="translate(1.000000, 1.000000)">
            <g id="lines" opacity=".8" transform="translate(16.000000, 18.000000)" stroke="#003CFF" fill="#D8D8D8">
                <path d="M186.49,446.28 L292.59,177.75" id="Shape-path"></path>
                <path d="M184.93,445.28 L246.14,243.88" id="Shape-path"></path>
                <path d="M174.49,445 L57.07,130.22" id="Shape-path"></path>
                <path d="M169.39,449.46 L0,232.46" id="Shape-path"></path>
                <path d="M170.64,448.07 L66.49,257.28" id="Shape-path"></path>
                <path d="M176.49,444.28 L120.42,213.87" id="Shape-path"></path>
                <path d="M178.42,444.13 L143,142.83" id="Shape-path"></path>
                <path d="M180.25,444.13 L166.03,257.28" id="Shape-path"></path>
                <path d="M182.9,444.41 L202.5,149.5" id="Shape-path"></path>
                <path d="M187.92,447.76 L302.72,283.82" id="Shape-path"></path>
                <path d="M183.96,444.65 L210.83,293.23" id="Shape-path"></path>
                <path d="M172.49,446.28 L122.98,337" id="Shape-path"></path>
                <path d="M168.79,451.16 L41.92,323.92" id="Shape-path"></path>
                <path d="M185.5,1.5 L4.06,213.87" id="Shape-path"></path>
                <path d="M186.5,1.5 L65.54,219.28" id="Shape-path"></path>
                <path d="M188.5,3.5 L149.09,104.42" id="Shape-path"></path>
                <path d="M195.5,5.5 L202.5,125.5" id="Shape-path"></path>
                <path d="M184.5,0.5 L60.5,119.5" id="Shape-path"></path>
                <path d="M189.5,4.5 L121.59,191.62" id="Shape-path"></path>
                <path d="M191.5,5.5 L166.02,203.81" id="Shape-path"></path>
                <path d="M181.71,444.19 L183.22,372.02" id="Shape-path"></path>
                <path d="M193.5,5.5 L184.4,340.16" id="Shape-path"></path>
                <path d="M190.5,4.5 L122.98,293.23" id="Shape-path"></path>
                <path d="M197.5,5.5 L211.33,274.73" id="Shape-path"></path>
                <path d="M187.5,2.5 L40.14,312.04" id="Shape-path"></path>
                <path d="M200.5,4.5 L303.49,270.81" id="Shape-path"></path>
                <path d="M198.5,4.5 L244.82,215.91" id="Shape-path"></path>
                <path d="M201.5,3.5 L290.5,157.5" id="Shape-path"></path>
            </g>
            <path d="M220.56,144.000004 C226.937584,144.005526 232.103678,149.179079 232.099998,155.556665 C232.096318,161.93425 226.924256,167.101838 220.54667,167.099999 C214.169083,167.09816 209.000002,161.927591 209,155.550004 C208.999999,152.48502 210.218243,149.545716 212.386451,147.379383 C214.55466,145.21305 217.495017,143.99735 220.56,144.000004 Z" id="Shape" stroke="#8100FE" stroke-width="3" fill="#001484"></path>
            <path d="M159.51,122.18 C170.37766,122.185522 179.18368,130.999002 179.179999,141.866663 C179.176318,152.734324 170.36433,161.541837 159.496668,161.539997 C148.629007,161.538157 139.820001,152.727662 139.82,141.86 C139.825521,130.989419 148.639417,122.179999 159.51,122.18 Z" id="Shape" stroke="#8100FE" stroke-width="3.5" fill="#001484"></path>
            <path d="M182.07,223 C196.686372,223.005523 208.531839,234.856959 208.529998,249.473332 C208.528157,264.089705 196.679705,275.938157 182.063332,275.939998 C167.446959,275.941839 155.595523,264.096372 155.59,249.48 C155.59,234.8555 167.4455,223 182.07,223 L182.07,223 Z" id="Shape" stroke="#8100FE" stroke-width="5" fill="#001484"></path>
            <path d="M311.72,174.9 C317.36435,174.9 321.94,179.47565 321.94,185.12 C321.94,190.76435 317.36435,195.34 311.72,195.34 C306.07565,195.34 301.5,190.76435 301.5,185.12 C301.5,182.409487 302.576747,179.80999 304.493369,177.893369 C306.40999,175.976747 309.009487,174.9 311.72,174.9 Z M322.1,289.18 C325.789262,289.18 328.78,292.170738 328.78,295.86 C328.78,299.549262 325.789262,302.54 322.1,302.54 C318.410738,302.54 315.42,299.549262 315.42,295.86 C315.42,292.170738 318.410738,289.18 322.1,289.18 Z" id="Shape" stroke="#7B00FE" stroke-width="2.5" fill="#001484"></path>
            <path d="M265.16,234.09 C272.959857,234.10656 279.27102,240.440091 279.259986,248.239958 C279.248952,256.039824 272.919894,262.355473 265.120021,262.349965 C257.320149,262.344456 251.000018,256.019874 251,248.22 C250.999992,244.467287 252.492801,240.868713 255.149182,238.21796 C257.805563,235.567207 261.407296,234.082032 265.16,234.09 L265.16,234.09 Z M228.49,293.42 C233.604157,293.42 237.75,297.565843 237.75,302.68 C237.75,307.794157 233.604157,311.94 228.49,311.94 C223.375843,311.94 219.23,307.794157 219.23,302.68 C219.23,297.565843 223.375843,293.42 228.49,293.42 L228.49,293.42 Z" id="Shape" stroke="#8100FE" stroke-width="3.5" fill="#001484"></path>
            <path d="M200.91,358.87 C207.359844,358.857861 213.181348,362.733811 215.658012,368.68921 C218.134676,374.644609 216.778333,381.505602 212.221894,386.070632 C207.665455,390.635663 200.807029,392.004929 194.846975,389.539488 C188.886922,387.074047 185.000011,381.259856 185,374.81 C184.999984,366.018284 192.118299,358.886547 200.91,358.87 L200.91,358.87 Z" id="Shape" stroke="#7B00FE" stroke-width="3" fill="#001484"></path>
            <path d="M132.82,311.65 C145.141785,311.655532 155.128146,321.644891 155.12998,333.966677 C155.131813,346.288463 145.148424,356.280794 132.826641,356.289992 C120.504859,356.29919 110.506563,346.321775 110.49,334 C110.484693,328.074251 112.834968,322.389389 117.02323,318.197375 C121.211493,314.005361 126.894249,311.649998 132.82,311.65 Z" id="Shape" stroke="#8100FE" stroke-width="4" fill="#001484"></path>
            <path d="M53.27,329.71 C57.4053065,329.715521 60.7536765,333.071349 60.749997,337.206658 C60.7463175,341.341966 57.3919809,344.69183 53.2566711,344.689993 C49.1213613,344.688155 45.7700037,341.33531 45.77,337.2 C45.7755176,333.06177 49.1317665,329.709996 53.27,329.71 L53.27,329.71 Z" id="Shape" stroke="#7B00FE" stroke-width="2.5" fill="#001484"></path>
            <path d="M76.43,237.2 C87.5198778,237.2 96.51,246.190122 96.51,257.28 C96.51,268.369878 87.5198778,277.36 76.43,277.36 C65.3401222,277.36 56.35,268.369878 56.35,257.28 C56.35,246.190122 65.3401222,237.2 76.43,237.2 Z" id="Shape" stroke="#8100FE" stroke-width="4" fill="#001484"></path>
            <path d="M11.8,229.08 C18.1788889,229.08 23.35,234.251111 23.35,240.63 C23.35,247.008889 18.1788889,252.18 11.8,252.18 C5.42111114,252.18 0.25,247.008889 0.25,240.63 C0.25,234.251111 5.42111114,229.08 11.8,229.08 L11.8,229.08 Z M70.79,135.38 C74.6946532,135.38 77.86,138.545347 77.86,142.45 C77.86,146.354653 74.6946532,149.52 70.79,149.52 C66.8853468,149.52 63.72,146.354653 63.72,142.45 C63.72,138.545347 66.8853468,135.38 70.79,135.38 L70.79,135.38 Z" id="Shape" stroke="#8100FE" stroke-width="2.5" fill="#001484"></path>
            <path d="M222.1,11.55 C222.1,17.9288889 216.928889,23.1 210.55,23.1 C204.171111,23.1 199,17.9288889 199,11.55 C199,5.17111114 204.171111,1.11022302e-15 210.55,0 C216.928889,3.33066907e-16 222.1,5.17111114 222.1,11.55 Z" id="Shape" stroke="#2618FE" stroke-width="2"></path>
            <path d="M196,462.66 C202.378889,462.66 207.55,467.831111 207.55,474.21 C207.55,480.588889 202.378889,485.76 196,485.76 C189.621111,485.76 184.45,480.588889 184.45,474.21 C184.45,467.831111 189.621111,462.66 196,462.66 L196,462.66 Z" id="Shape" stroke="#2618FE" stroke-width="2"></path>
            <path d="M135.48,209.69 C141.858889,209.69 147.03,214.861111 147.03,221.24 C147.03,227.618889 141.858889,232.79 135.48,232.79 C129.101111,232.79 123.93,227.618889 123.93,221.24 C123.93,214.861111 129.101111,209.69 135.48,209.69 Z" id="Shape" stroke="#8100FE" stroke-width="3" fill="#001484"></path>
        </g>
    </g>
</svg>