<svg version="1.1" xmlns="http://www.w3.org/2000/svg" xmlns:xlink="http://www.w3.org/1999/xlink" x="0px" y="0px" xml:space="preserve">

<symbol id="text" viewBox="0 0 130 30">
<path d="M19.37,12.21c-0.71-0.15-1.27-0.18-1.65-0.18c-1.51,0-2.07,0.94-2.07,2.74v1.92h3.1v1.5h-3.1v10.86h-1.77V18.2
	    h-2.3l0.41-1.5h1.86v-1.92c0-2.95,1.39-4.28,3.66-4.28c0.8,0,1.27,0.09,2.12,0.24L19.37,12.21z" />

<polygon points="24.14,29.06 24.14,10.92 25.91,10.56 25.91,29.06 " />

<path d="M33.41,16.73v6.43c0,3.1,0.8,4.6,3.3,4.6c1.89,0,4.16-1.36,4.16-4.87v-6.17h1.77v12.33h-1.77v-2.45
	    c-0.91,2.04-2.86,2.68-4.45,2.68c-3.51,0-4.81-2.24-4.81-6.11v-6.46H33.41z" />

<path d="M55.81,19.18c-1.09-0.77-2.45-1.12-3.54-1.12c-1.21,0-2.63,0.44-2.63,1.71c0,3.01,7.14,1.42,7.14,5.9
	    c0,2.36-2.01,3.63-4.69,3.63c-1.27,0-2.98-0.27-4.78-1.45c0.32-0.44,0.89-1.24,0.94-1.3c1.27,0.86,2.74,1.18,3.78,1.18
	    c1.77,0,2.92-0.71,2.92-2.04c0-3.25-7.05-1.5-7.05-5.93c0-2.24,2.1-3.28,4.37-3.28c1.48,0,2.98,0.5,3.81,1.09
	    C55.99,18.12,55.9,18.65,55.81,19.18" />

<path d="M69.31,19.18c-1.09-0.77-2.45-1.12-3.54-1.12c-1.21,0-2.63,0.44-2.63,1.71c0,3.01,7.14,1.42,7.14,5.9
	    c0,2.36-2.01,3.63-4.69,3.63c-1.27,0-2.98-0.27-4.78-1.45c0.32-0.44,0.89-1.24,0.94-1.3c1.27,0.86,2.74,1.18,3.78,1.18
	    c1.77,0,2.92-0.71,2.92-2.04c0-3.25-7.05-1.5-7.05-5.93c0-2.24,2.09-3.28,4.37-3.28c1.48,0,2.98,0.5,3.81,1.09
	    C69.49,18.12,69.4,18.65,69.31,19.18" />

<path d="M81.02,29.3c-3.51,0-6.34-2.27-6.34-6.37s2.83-6.4,6.34-6.4c3.54,0,6.34,2.3,6.34,6.43
	    C87.36,27.03,84.56,29.3,81.02,29.3 M80.99,18.12c-2.51,0-4.54,1.71-4.54,4.81c0,3.13,2.04,4.81,4.54,4.81
	    c2.57,0,4.57-1.68,4.57-4.78C85.56,19.83,83.55,18.12,80.99,18.12" />

<path d="M101.99,29.06v-6.43c0-3.1-0.94-4.6-3.45-4.6c-1.89,0-4.16,1.36-4.16,4.87v6.17h-1.77V16.73h1.77v2.45
	    c0.91-2.04,2.86-2.68,4.46-2.68c3.51,0,4.96,2.24,4.96,6.11v6.46H101.99z" />

<rect x="109.57" y="16.73" width="1.77" height="12.33" />

<path d="M116.54,22.9c0-4.07,2.74-6.4,6.46-6.4c2.01,0,3.48,0.86,4.1,1.27l-0.35,1.59c-0.5-0.3-1.89-1.27-3.75-1.27
	    c-2.68,0-4.72,1.68-4.72,4.78c0,3.1,2.01,4.87,4.72,4.87c1.71,0,3.04-0.83,3.75-1.3l0.83,1.42c-1.59,1.06-3.07,1.45-4.57,1.45
	    C119.29,29.3,116.54,26.91,116.54,22.9" />
</symbol>
<symbol id="circle" viewBox="0 0 130 30">
<path d="M10.72,4.85C10.72,7.15,8.87,9,6.57,9C4.28,9,2.42,7.15,2.42,4.85S4.28,0.7,6.57,0.7
	C8.87,0.7,10.72,2.56,10.72,4.85" />
  </symbol>
</svg>
