<?xml version="1.0" encoding="utf-8" ?>
<!-- Generator: Adobe Illustrator 22.0.1, SVG Export Plug-In . SVG Version: 6.00 Build 0)  -->
<svg version="1.1" id="Layer_1" xmlns="http://www.w3.org/2000/svg" xmlns:xlink="http://www.w3.org/1999/xlink" x="0px" y="0px"
     viewBox="0 0 248 248" xml:space="preserve">
<style type="text/css">
    .st0 {
        fill: #FF0D70;
    }
</style>
<g>
<path class="st0" d="M211.4,36.3C180.8,5.7,137.4-6.6,95.2,3.4c-7.1,1.7-12.5,7.7-13.4,14.8L79,40.5c-1,8.4,2.3,16.6,8.7,21.6
		C95.4,68,99.9,77,99.9,86.7h1l0,0l-1,0.1c0,5.9,3.4,11.3,8.7,13.8l16.1,7.6c4.4,2.1,9.5,1.2,13-2.2c9.1-8.8,21.1-13.6,33.8-13.6
		c22.6,0,42.2,15.4,47.4,37.4c1.8,7.5,8.2,13.1,16,13.9l3.5,0.4c0.3,0,0.6,0,0.9,0c1.7,0,3.4-0.6,4.8-1.7c1.6-1.3,2.6-3.1,2.8-5.2
		C251,99.7,238,63,211.4,36.3z" />

<path class="st0" d="M104,194c5.2,3,11.7,2,15.7-2.4l8.1-8.9c4.3-4.7,5-11.5,1.7-16.9c-4.4-7.5-6.7-16-6.7-24.7
		c0-4.7,0.7-9.3,2-13.8c1.4-4.6-0.9-9.7-5.3-11.8l-14.8-7c-5.2-2.5-11.6-1.7-16.1,2.1c-5.5,4.6-12.6,7.1-19.8,7.1
		c-10.5,0-20.2-5.2-25.9-14c-2.9-4.4-8.2-6.7-13.4-5.8L9,101.4c-4.4,0.8-7.8,4.4-8.3,8.8c-4.2,37.6,8.8,74.5,35.5,101.2
		c3.7,3.7,7.6,7.1,11.6,10.3c1,0.8,2.2,1.2,3.4,1.2c0.8,0,1.5-0.2,2.2-0.5c1.9-0.8,3.3-2.7,3.5-4.8c1.2-12.8,10.1-27.8,31.5-27.8
		C94,189.9,99.3,191.3,104,194z" />

<path class="st0" d="M11.3,92c0.3,0,0.6,0,0.9-0.1l12.5-2.2c6.9-1.2,12.4-5.9,14.4-12.4c2.8-8.8,9.2-15.8,17.7-19.4
		c7.1-3,12.2-9.7,13.2-17.6l2.5-20.5c0.2-1.9-0.6-3.7-2.2-4.8s-3.6-1.2-5.3-0.3c-10.6,5.7-20.3,13-28.9,21.5
		C22.4,50.2,12.3,66.5,6.2,85c-0.6,1.8-0.2,3.7,1,5.1C8.3,91.3,9.8,92,11.3,92z" />

<path class="st0" d="M237.1,152.8l-5.5-0.6c-6.6-0.7-12.9,2.8-15.6,8.9c-7.9,17.5-25.3,28.8-44.5,28.8c-7.8,0-15.3-1.8-22.2-5.4
		c-4.5-2.3-10-1.3-13.3,2.4l-12.5,13.8c-3.6,4-5.2,9.4-4.3,14.5c0.4,1.9,0.5,3.8,0.5,5.7c0,6.6-2.1,12.9-5.9,18.2
		c-1.2,1.6-1.4,3.7-0.5,5.6c0.9,1.9,2.7,3.1,4.8,3.2c1.9,0.1,3.9,0.1,5.8,0.1c32.5,0,64.2-13.2,87.7-36.6
		c14.2-14.2,24.9-31.8,30.7-50.9c0.5-1.7,0.3-3.6-0.7-5.1C240.4,153.9,238.9,153,237.1,152.8z" />

<path class="st0" d="M88.6,199c-12.1,0-21.9,9.8-21.9,21.9c0,7.5,3.8,14.4,10.2,18.4l0.2,0.1c2.7,1.1,5.5,2.1,8.3,3.1h0.2
		c1.2,0.2,2.1,0.2,3.1,0.2c12.1,0,21.9-9.8,21.9-21.9S100.6,199,88.6,199z" />

<path class="st0" d="M46.7,86.7c0,12.2,9.9,22.1,22.1,22.1s22.1-9.9,22.1-22.1S81,64.6,68.8,64.6S46.7,74.5,46.7,86.7z" />

<path class="st0" d="M171.5,180c21.5,0,38.9-17.5,38.9-38.9c0-21.5-17.5-38.9-38.9-38.9c-21.5,0-38.9,17.5-38.9,38.9
		S150,180,171.5,180z" />

</g>
</svg>
