﻿<svg version="1.1" xmlns="http://www.w3.org/2000/svg" xmlns:xlink="http://www.w3.org/1999/xlink" x="0px" y="0px" xml:space="preserve">
    <symbol id="fb" viewBox="29 5.001 42 89.999">
        <path d="M38.078,22.431v12.391H29v15.152h9.078V95h18.648V49.975H69.24c0,0,1.172-7.265,1.74-15.209H56.797v-10.36   c0-1.548,2.033-3.631,4.043-3.631H71V5.001H57.186C37.617,5,38.078,20.167,38.078,22.431"></path>
    </symbol>
    <symbol id="tw" viewBox="-0.034 141 164.534 137.183">
        <path d="M163.701,157.667c-1.059-1.133-2.747-1.414-4.116-0.686c-1.66,0.76-3.38,1.38-5.144,1.852   c2.615-3.26,4.593-6.983,5.83-10.975c0.45-1.84-0.677-3.696-2.517-4.146c-0.952-0.233-1.958-0.047-2.764,0.51   c-5.466,3.023-11.298,5.328-17.354,6.859c-6.505-6.471-15.311-10.098-24.487-10.083c-7.321,0.161-14.449,2.371-20.577,6.379   c-13.032,7.339-15.296,24.281-14.335,34.775c-24.16-2.038-46.449-13.826-61.731-32.649c-0.625-0.961-1.667-1.572-2.812-1.646   c-1.144,0.077-2.173,0.721-2.744,1.715c-7.066,12.236-6.479,27.442,1.509,39.097c-1.029-0.686-2.126-1.509-3.224-2.401   c-1.345-1.333-3.517-1.324-4.85,0.021c-0.712,0.719-1.071,1.715-0.98,2.723c0.208,12.764,6.603,24.632,17.148,31.826l-2.675-0.754   c-1.808-0.563-3.731,0.447-4.293,2.255c-0.239,0.769-0.201,1.597,0.109,2.34c5.383,12.159,15.928,21.269,28.74,24.83   c-11.68,6.747-25.211,9.583-38.617,8.094c-1.88-0.232-3.592,1.103-3.824,2.983c-0.169,1.371,0.5,2.709,1.698,3.396   c16.128,9.407,34.486,14.311,53.158,14.198l0,0c26.37-0.215,51.366-11.789,68.59-31.758c17.158-18.39,26.183-42.917,25.036-68.042   c6.112-4.67,11.379-10.354,15.57-16.805C164.76,160.331,164.623,158.77,163.701,157.667z"></path>
    </symbol>
</svg>
