<?xml version="1.0" encoding="utf-8" ?>
<!-- Generator: Adobe Illustrator 22.0.1, SVG Export Plug-In . SVG Version: 6.00 Build 0)  -->
<svg version="1.1" xmlns="http://www.w3.org/2000/svg" xmlns:xlink="http://www.w3.org/1999/xlink" x="0px" y="0px"
     style="enable-background:new 0 0 1048.2 679.8;" xml:space="preserve">

<symbol id="line1" viewBox="0 0 939.9 602.7">

    <path fill="none"
          stroke="#003CFF"
          stroke-width="2"
          stroke-dasharray="8,4" 
          d="M442.6,349.9c0,0-151.7,82.1-171.4,92.6c-31.1,18.5-55.4,32.3-81.7,47.4c-15.1,8.6-8.1,4.9-22.3,13.5
	c-20,12.1-25.2,16.8-56.3,35C94.7,548.6,6.6,601.8,6.6,601.8 M896-1.9c0,0-304.5,143.3-324.7,152.8c-30.3,14.2-41,33.7-41,68.4v45
	c0,18-3.1,38.1-26,51c-16.8,9.4-66,37-66,37"/>

    <path fill="none"
          stroke="#003CFF"
          stroke-width="2"
          stroke-dasharray="8,4"
          d="M530.5,288.3c0,37.3,0,56,14.8,70.6c22.2,21.9,148.2,147.2,163.4,161c21.6,19.7,35,23.7,64,23.7h87
	c15.2,0,27,9.8,40.7,22.3c22.3,20.4,27.9,25.5,38.9,34.6" />

</symbol>

<symbol id="line2" viewBox="0 0 552.1 79.4">

    <path fill="none"
          stroke="#003CFF"
          stroke-width="2"
          stroke-dasharray="8,4"
          d="M551.5,0.9c0,0-66.5,42.4-107,67.8c-13.1,8.3-29.6,9.8-45.5,9.8H34.5c-17,0-22-3.7-34-12.8" />

</symbol>
<symbol id="line3" viewBox="0 0 509.1 120.2">

    <path fill="none"
          stroke="#003CFF"
          d="M0.5,0.8c0,0,144.9,92,180.2,110.1c19.4,10,37.7,11.8,70,0.6c59.1-20.4,149.4-50.7,174.8-60
	            c33-12.1,39.4-6,82.9,32.1" />

</symbol>
</svg>
