<?xml version="1.0" encoding="utf-8" ?>
<svg version="1.1" id="overlay" viewBox="0 0 1796 1480" xmlns="http://www.w3.org/2000/svg" xmlns:xlink="http://www.w3.org/1999/xlink"
     x="0px" y="0px" xml:space="preserve">

<linearGradient id="SVGID_1_" gradientUnits="userSpaceOnUse" x1="660.2913" y1="789.208" x2="822.0642" y2="1224.2797" gradientTransform="matrix(2 0 0 -2 -608.8596 2664.5547)">
    <stop offset="0" style="stop-color:#0043FF" />
    <stop offset="1" style="stop-color:#00F67A" />
</linearGradient>

<path fill="url(#SVGID_1_)" d="M216.56,501.016c-1.448,0-2.794-0.602-3.896-1.741l-64.658-66.494   c-4.645-5.252-3.79-11.034-3.28-14.49c0.508-3.438,2.851-5.66,5.964-5.66c1.95,0,3.912,0.874,5.385,2.395l64.021,66.638   c2.848,2.948,3.91,7.662,2.906,12.928C222.292,498.314,219.584,501.016,216.56,501.016L216.56,501.016z M150.69,417.632   c-0.264,0-0.812,0-1.018,1.391c-0.582,3.93-0.802,7.189,2,10.359l64.582,66.41c0.18,0.186,0.288,0.222,0.306,0.222   c0.26,0,1.216-0.71,1.53-2.359c0.686-3.595,0.09-6.782-1.594-8.522l-64.021-66.636C151.97,417.974,151.266,417.632,150.69,417.632   L150.69,417.632z M305.004,592.164c-1.78,0.013-3.488-0.703-4.727-1.982l-63.546-65.989c-3.182-3.29-4.485-8.454-3.399-13.475   c0.722-3.346,3.178-5.596,6.111-5.596c1.606,0,3.168,0.702,4.402,1.978l64.204,66.118c3.588,3.811,4.786,8.022,3.788,13.282   C311.215,589.784,308.346,592.162,305.004,592.164L305.004,592.164z M239.444,510.122c-0.432,0-0.991,0.568-1.226,1.652   c-0.882,4.079,0.586,7.37,2.112,8.945l63.546,65.99c0.297,0.301,0.705,0.466,1.128,0.456c0.942,0.006,1.754-0.666,1.922-1.594   c0.7-3.7-0.022-6.276-2.49-8.898l-64.182-66.094C239.97,510.282,239.682,510.122,239.444,510.122z M1144.703,1350.029   l512.809-266.033c16.956-10.49,27.994-26.691,31.088-45.616c2.45-14.989-0.08-30.752-7.18-46.034   c3.164,9.395,4.695,16.771,2.968,28.122c0.44,5.776,0.192,11.502-0.724,17.108c-2.856,17.474-13.078,32.45-28.683,42.11   l-512.553,265.895c-49.386,23.208-112.654,6.362-161.172-42.902L79.084,370.992C56.938,347.538,47.55,318.26,53.33,290.664   c3.582-17.1,12.706-32.054,26.445-43.818c7.849-10.284,18.975-17.722,25.124-21.1C74.41,238.68,54.358,261.37,48.436,289.638   c-6.12,29.22,3.727,60.124,27.036,84.808l902.207,931.725c35.006,35.544,77.566,54.664,117.612,54.66   C1112.491,1360.829,1129.235,1357.3,1144.703,1350.029z M1105.219,1330.039c-32.258,0-64.126-14.716-92.162-42.56   C824.893,1100.609,96.184,343.866,87.936,335.304c-0.061-0.063-0.117-0.129-0.172-0.198c-17.948-23.058-24.3-46.43-18.37-67.594   c5.92-21.126,24.116-38.432,51.234-48.728L606.581,33.52c19.055-6.458,34.677-9.45,49.248-9.45c29.442,0,55.94,12.762,85.914,41.384   l918.247,894.884c18.369,19.458,26.766,39.454,24.354,57.902c-2.146,16.418-12.794,30.982-30.792,42.12l-498.577,257.688   C1138.913,1326.023,1122.205,1330.039,1105.219,1330.039L1105.219,1330.039z M91.628,331.93   c12.848,13.336,737.369,765.706,924.953,952.003c27.078,26.892,57.728,41.107,88.638,41.107c16.208,0,32.168-3.842,47.434-11.416   l498.371-257.577c16.572-10.26,26.416-23.577,28.364-38.456c2.21-16.907-5.728-35.494-22.96-53.748L738.274,69.052   C709.32,41.408,683.89,29.07,655.832,29.07c-14.011,0-29.122,2.908-47.555,9.154L122.406,223.456   c-25.6,9.72-42.716,25.844-48.197,45.406C68.732,288.404,74.754,310.208,91.628,331.93L91.628,331.93z M1372.097,1160.351   c-17.592,0-35.868-7.587-48.888-20.292c-11.83-11.544-17.937-26-16.752-39.66c0.924-10.645,6.317-19.854,15.193-25.931   c7.328-5.018,16.637-7.67,26.918-7.67c17.767,0,36.316,7.752,49.624,20.736c11.774,11.488,17.862,25.758,16.704,39.151   c-0.912,10.53-6.328,19.69-15.248,25.797C1392.129,1157.63,1382.603,1160.35,1372.097,1160.351L1372.097,1160.351z    M1348.567,1071.798c-9.268,0-17.6,2.351-24.094,6.794c-7.616,5.215-12.244,13.112-13.036,22.236   c-1.054,12.162,4.508,25.156,15.262,35.65c12.11,11.815,29.08,18.869,45.396,18.869c9.494,0,18.042-2.418,24.724-6.989   c7.772-5.32,12.298-12.964,13.091-22.104c1.031-11.894-4.515-24.706-15.213-35.142   C1382.303,1079.021,1365.059,1071.798,1348.567,1071.798L1348.567,1071.798z M974.57,1212.713c-2.998,0-5.713-1.182-8.07-3.508   L162.486,380.892c-3.157-3.312-3.3-6.29-2.865-8.206c0.697-3.088,3.369-5.664,7.523-7.25L767.76,126.734   c2.542-0.958,4.394-1.376,6.046-1.376c3.696,0,6.078,1.998,9.66,5.258l787.77,767.098c2.219,2.145,4.714,5.042,4.261,8.376   c-0.471,3.431-3.83,5.681-7.053,7.427l-586.603,296.94C979.477,1211.929,976.987,1212.713,974.57,1212.713L974.57,1212.713z    M773.806,130.358c-1.01,0-2.358,0.33-4.242,1.04L168.958,370.096c-2.498,0.954-4.154,2.33-4.462,3.692   c-0.296,1.314,0.701,2.704,1.592,3.638l803.963,828.262c2.586,2.55,5.69,2.676,9.29,0.446l586.728-297.014   c3.726-2.021,4.401-3.189,4.472-3.706c0.063-0.466-0.212-1.624-2.79-4.114L780.039,134.254   C776.787,131.296,775.486,130.358,773.806,130.358L773.806,130.358z M630.774,610.796c0.974-0.979,0.968-2.562-0.012-3.535v-0.001   L487.518,464.964l74.368-28.124c1.301-0.463,1.979-1.894,1.516-3.194c-0.464-1.3-1.894-1.979-3.194-1.516   c-0.03,0.011-0.06,0.022-0.09,0.034l-78,29.498c-1.291,0.489-1.94,1.934-1.45,3.225c0.126,0.332,0.322,0.635,0.574,0.885   l146,145.034c0.974,0.973,2.552,0.972,3.524-0.002C630.769,610.801,630.771,610.799,630.774,610.796L630.774,610.796z    M555.228,537.146l66.038-26.494c1.281-0.515,1.902-1.971,1.388-3.252s-1.971-1.903-3.252-1.389l0,0l-66.036,26.494   c-1.287,0.5-1.925,1.948-1.426,3.235c0.5,1.287,1.948,1.926,3.235,1.426C555.193,537.16,555.21,537.153,555.228,537.146z    M794.373,543.16c0.858-0.8,1.043-2.09,0.444-3.101l-90.556-152.813l183.044,118.852c1.159,0.751,2.707,0.419,3.457-0.74   c0.536-0.828,0.535-1.895-0.003-2.722L786.594,342.802c-0.754-1.156-2.303-1.481-3.458-0.728c-1.156,0.754-1.482,2.302-0.729,3.458   l97.718,149.941L698.028,377.236c-1.162-0.748-2.71-0.412-3.458,0.75c-0.511,0.793-0.531,1.807-0.054,2.62l90.208,152.224   L608.088,411.271c-1.138-0.782-2.694-0.496-3.478,0.642c-0.783,1.137-0.496,2.693,0.642,3.477l185.997,128   C792.217,544.053,793.514,543.957,794.373,543.16L794.373,543.16z M442.882,167.428c-5.347,0-11.225-3.744-13.67-8.708   c-1.458-2.958-1.524-6.014-0.181-8.382c1.271-2.238,3.584-3.602,6.519-3.842c5.544-0.436,12,3.42,14.584,8.672   c1.458,2.956,1.523,6.01,0.182,8.378c-1.27,2.24-3.584,3.604-6.518,3.844C443.493,167.416,443.188,167.429,442.882,167.428z    M436.468,151.46c-0.171,0-0.341,0.006-0.511,0.02c-0.873,0.072-2.027,0.358-2.575,1.326c-0.515,0.906-0.398,2.256,0.315,3.706   c1.688,3.424,6.132,6.198,9.696,5.896c0.872-0.07,2.026-0.358,2.576-1.326c0.512-0.906,0.397-2.254-0.316-3.704   C444.041,154.116,439.924,151.46,436.468,151.46z M425.516,216.378c-2.904,0-6.86-0.946-9.252-3.598   c-1.524-1.688-2.112-3.842-1.612-5.908c0.544-2.248,2.29-4.128,4.67-5.028l80.302-30.042c1.051-0.398,2.259-0.6,3.58-0.6   c3.608,0,7.28,1.484,9.354,3.782c1.556,1.726,2.166,3.878,1.674,5.906c-0.524,2.162-2.176,3.912-4.536,4.804l-80.302,30.042   C428.283,216.156,426.94,216.378,425.516,216.378L425.516,216.378z M503.203,176.202c-0.704,0-1.334,0.096-1.819,0.28   l-80.303,30.042c-0.812,0.308-1.418,0.892-1.571,1.526c-0.112,0.46,0.04,0.914,0.462,1.382c1.036,1.146,3.313,1.948,5.542,1.948   c0.813,0,1.565-0.116,2.118-0.324l80.302-30.042c0.758-0.286,1.312-0.786,1.436-1.302c0.124-0.514-0.218-1.034-0.527-1.378   C507.73,177.098,505.358,176.202,503.203,176.202L503.203,176.202z" />


</svg>
